%!PS-Adobe-3.0 EPSF-3.0
%%Creator: (MATLAB, The Mathworks, Inc. Version 23.2.0.2428915 \(R2023b\) Update 4. Operating System: Mac OS X)
%%Title: /Users/ardaozdogru/Desktop/Article/USED_CODES/par_analysis/Matlab_Code_REV2/Ap.eps
%%CreationDate: 2024-03-21T17:49:30
%%Pages: (atend)
%%BoundingBox:     0     0  1470   869
%%LanguageLevel: 3
%%EndComments
%%BeginProlog
%%BeginResource: procset (Apache XML Graphics Std ProcSet) 1.2 0
%%Version: 1.2 0
%%Copyright: (Copyright 2001-2003,2010 The Apache Software Foundation. License terms: http://www.apache.org/licenses/LICENSE-2.0)
/bd{bind def}bind def
/ld{load def}bd
/GR/grestore ld
/GS/gsave ld
/RM/rmoveto ld
/C/curveto ld
/t/show ld
/L/lineto ld
/ML/setmiterlimit ld
/CT/concat ld
/f/fill ld
/N/newpath ld
/S/stroke ld
/CC/setcmykcolor ld
/A/ashow ld
/cp/closepath ld
/RC/setrgbcolor ld
/LJ/setlinejoin ld
/GC/setgray ld
/LW/setlinewidth ld
/M/moveto ld
/re {4 2 roll M
1 index 0 rlineto
0 exch rlineto
neg 0 rlineto
cp } bd
/_ctm matrix def
/_tm matrix def
/BT { _ctm currentmatrix pop matrix _tm copy pop 0 0 moveto } bd
/ET { _ctm setmatrix } bd
/iTm { _ctm setmatrix _tm concat } bd
/Tm { _tm astore pop iTm 0 0 moveto } bd
/ux 0.0 def
/uy 0.0 def
/F {
  /Tp exch def
  /Tf exch def
  Tf findfont Tp scalefont setfont
  /cf Tf def  /cs Tp def
} bd
/ULS {currentpoint /uy exch def /ux exch def} bd
/ULE {
  /Tcx currentpoint pop def
  gsave
  newpath
  cf findfont cs scalefont dup
  /FontMatrix get 0 get /Ts exch def /FontInfo get dup
  /UnderlinePosition get Ts mul /To exch def
  /UnderlineThickness get Ts mul /Tt exch def
  ux uy To add moveto  Tcx uy To add lineto
  Tt setlinewidth stroke
  grestore
} bd
/OLE {
  /Tcx currentpoint pop def
  gsave
  newpath
  cf findfont cs scalefont dup
  /FontMatrix get 0 get /Ts exch def /FontInfo get dup
  /UnderlinePosition get Ts mul /To exch def
  /UnderlineThickness get Ts mul /Tt exch def
  ux uy To add cs add moveto Tcx uy To add cs add lineto
  Tt setlinewidth stroke
  grestore
} bd
/SOE {
  /Tcx currentpoint pop def
  gsave
  newpath
  cf findfont cs scalefont dup
  /FontMatrix get 0 get /Ts exch def /FontInfo get dup
  /UnderlinePosition get Ts mul /To exch def
  /UnderlineThickness get Ts mul /Tt exch def
  ux uy To add cs 10 mul 26 idiv add moveto Tcx uy To add cs 10 mul 26 idiv add lineto
  Tt setlinewidth stroke
  grestore
} bd
/QT {
/Y22 exch store
/X22 exch store
/Y21 exch store
/X21 exch store
currentpoint
/Y21 load 2 mul add 3 div exch
/X21 load 2 mul add 3 div exch
/X21 load 2 mul /X22 load add 3 div
/Y21 load 2 mul /Y22 load add 3 div
/X22 load /Y22 load curveto
} bd
/SSPD {
dup length /d exch dict def
{
/v exch def
/k exch def
currentpagedevice k known {
/cpdv currentpagedevice k get def
v cpdv ne {
/upd false def
/nullv v type /nulltype eq def
/nullcpdv cpdv type /nulltype eq def
nullv nullcpdv or
{
/upd true def
} {
/sametype v type cpdv type eq def
sametype {
v type /arraytype eq {
/vlen v length def
/cpdvlen cpdv length def
vlen cpdvlen eq {
0 1 vlen 1 sub {
/i exch def
/obj v i get def
/cpdobj cpdv i get def
obj cpdobj ne {
/upd true def
exit
} if
} for
} {
/upd true def
} ifelse
} {
v type /dicttype eq {
v {
/dv exch def
/dk exch def
/cpddv cpdv dk get def
dv cpddv ne {
/upd true def
exit
} if
} forall
} {
/upd true def
} ifelse
} ifelse
} if
} ifelse
upd true eq {
d k v put
} if
} if
} if
} forall
d length 0 gt {
d setpagedevice
} if
} bd
/RE { % /NewFontName [NewEncodingArray] /FontName RE -
  findfont dup length dict begin
  {
    1 index /FID ne
    {def} {pop pop} ifelse
  } forall
  /Encoding exch def
  /FontName 1 index def
  currentdict definefont pop
  end
} bind def
%%EndResource
%%BeginResource: procset (Apache XML Graphics EPS ProcSet) 1.0 0
%%Version: 1.0 0
%%Copyright: (Copyright 2002-2003 The Apache Software Foundation. License terms: http://www.apache.org/licenses/LICENSE-2.0)
/BeginEPSF { %def
/b4_Inc_state save def         % Save state for cleanup
/dict_count countdictstack def % Count objects on dict stack
/op_count count 1 sub def      % Count objects on operand stack
userdict begin                 % Push userdict on dict stack
/showpage { } def              % Redefine showpage, { } = null proc
0 setgray 0 setlinecap         % Prepare graphics state
1 setlinewidth 0 setlinejoin
10 setmiterlimit [ ] 0 setdash newpath
/languagelevel where           % If level not equal to 1 then
{pop languagelevel             % set strokeadjust and
1 ne                           % overprint to their defaults.
{false setstrokeadjust false setoverprint
} if
} if
} bd
/EndEPSF { %def
count op_count sub {pop} repeat            % Clean up stacks
countdictstack dict_count sub {end} repeat
b4_Inc_state restore
} bd
%%EndResource
%FOPBeginFontDict
%%IncludeResource: font Courier-Oblique
%%IncludeResource: font Courier-BoldOblique
%%IncludeResource: font Courier-Bold
%%IncludeResource: font ZapfDingbats
%%IncludeResource: font Symbol
%%IncludeResource: font Helvetica
%%IncludeResource: font Helvetica-Oblique
%%IncludeResource: font Helvetica-Bold
%%IncludeResource: font Helvetica-BoldOblique
%%IncludeResource: font Times-Roman
%%IncludeResource: font Times-Italic
%%IncludeResource: font Times-Bold
%%IncludeResource: font Times-BoldItalic
%%IncludeResource: font Courier
%FOPEndFontDict
%%BeginResource: encoding WinAnsiEncoding
/WinAnsiEncoding [
/.notdef /.notdef /.notdef /.notdef /.notdef
/.notdef /.notdef /.notdef /.notdef /.notdef
/.notdef /.notdef /.notdef /.notdef /.notdef
/.notdef /.notdef /.notdef /.notdef /.notdef
/.notdef /.notdef /.notdef /.notdef /.notdef
/.notdef /.notdef /.notdef /.notdef /.notdef
/.notdef /.notdef /space /exclam /quotedbl
/numbersign /dollar /percent /ampersand /quotesingle
/parenleft /parenright /asterisk /plus /comma
/hyphen /period /slash /zero /one
/two /three /four /five /six
/seven /eight /nine /colon /semicolon
/less /equal /greater /question /at
/A /B /C /D /E
/F /G /H /I /J
/K /L /M /N /O
/P /Q /R /S /T
/U /V /W /X /Y
/Z /bracketleft /backslash /bracketright /asciicircum
/underscore /quoteleft /a /b /c
/d /e /f /g /h
/i /j /k /l /m
/n /o /p /q /r
/s /t /u /v /w
/x /y /z /braceleft /bar
/braceright /asciitilde /bullet /Euro /bullet
/quotesinglbase /florin /quotedblbase /ellipsis /dagger
/daggerdbl /circumflex /perthousand /Scaron /guilsinglleft
/OE /bullet /Zcaron /bullet /bullet
/quoteleft /quoteright /quotedblleft /quotedblright /bullet
/endash /emdash /asciitilde /trademark /scaron
/guilsinglright /oe /bullet /zcaron /Ydieresis
/space /exclamdown /cent /sterling /currency
/yen /brokenbar /section /dieresis /copyright
/ordfeminine /guillemotleft /logicalnot /sfthyphen /registered
/macron /degree /plusminus /twosuperior /threesuperior
/acute /mu /paragraph /middot /cedilla
/onesuperior /ordmasculine /guillemotright /onequarter /onehalf
/threequarters /questiondown /Agrave /Aacute /Acircumflex
/Atilde /Adieresis /Aring /AE /Ccedilla
/Egrave /Eacute /Ecircumflex /Edieresis /Igrave
/Iacute /Icircumflex /Idieresis /Eth /Ntilde
/Ograve /Oacute /Ocircumflex /Otilde /Odieresis
/multiply /Oslash /Ugrave /Uacute /Ucircumflex
/Udieresis /Yacute /Thorn /germandbls /agrave
/aacute /acircumflex /atilde /adieresis /aring
/ae /ccedilla /egrave /eacute /ecircumflex
/edieresis /igrave /iacute /icircumflex /idieresis
/eth /ntilde /ograve /oacute /ocircumflex
/otilde /odieresis /divide /oslash /ugrave
/uacute /ucircumflex /udieresis /yacute /thorn
/ydieresis
] def
%%EndResource
%FOPBeginFontReencode
/Courier-Oblique findfont
dup length dict begin
  {1 index /FID ne {def} {pop pop} ifelse} forall
  /Encoding WinAnsiEncoding def
  currentdict
end
/Courier-Oblique exch definefont pop
/Courier-BoldOblique findfont
dup length dict begin
  {1 index /FID ne {def} {pop pop} ifelse} forall
  /Encoding WinAnsiEncoding def
  currentdict
end
/Courier-BoldOblique exch definefont pop
/Courier-Bold findfont
dup length dict begin
  {1 index /FID ne {def} {pop pop} ifelse} forall
  /Encoding WinAnsiEncoding def
  currentdict
end
/Courier-Bold exch definefont pop
/Helvetica findfont
dup length dict begin
  {1 index /FID ne {def} {pop pop} ifelse} forall
  /Encoding WinAnsiEncoding def
  currentdict
end
/Helvetica exch definefont pop
/Helvetica-Oblique findfont
dup length dict begin
  {1 index /FID ne {def} {pop pop} ifelse} forall
  /Encoding WinAnsiEncoding def
  currentdict
end
/Helvetica-Oblique exch definefont pop
/Helvetica-Bold findfont
dup length dict begin
  {1 index /FID ne {def} {pop pop} ifelse} forall
  /Encoding WinAnsiEncoding def
  currentdict
end
/Helvetica-Bold exch definefont pop
/Helvetica-BoldOblique findfont
dup length dict begin
  {1 index /FID ne {def} {pop pop} ifelse} forall
  /Encoding WinAnsiEncoding def
  currentdict
end
/Helvetica-BoldOblique exch definefont pop
/Times-Roman findfont
dup length dict begin
  {1 index /FID ne {def} {pop pop} ifelse} forall
  /Encoding WinAnsiEncoding def
  currentdict
end
/Times-Roman exch definefont pop
/Times-Italic findfont
dup length dict begin
  {1 index /FID ne {def} {pop pop} ifelse} forall
  /Encoding WinAnsiEncoding def
  currentdict
end
/Times-Italic exch definefont pop
/Times-Bold findfont
dup length dict begin
  {1 index /FID ne {def} {pop pop} ifelse} forall
  /Encoding WinAnsiEncoding def
  currentdict
end
/Times-Bold exch definefont pop
/Times-BoldItalic findfont
dup length dict begin
  {1 index /FID ne {def} {pop pop} ifelse} forall
  /Encoding WinAnsiEncoding def
  currentdict
end
/Times-BoldItalic exch definefont pop
/Courier findfont
dup length dict begin
  {1 index /FID ne {def} {pop pop} ifelse} forall
  /Encoding WinAnsiEncoding def
  currentdict
end
/Courier exch definefont pop
%FOPEndFontReencode
%%EndProlog
%%Page: 1 1
%%PageBoundingBox: 0 0 1470 869
%%BeginPageSetup
[1 0 0 -1 0 869] CT
%%EndPageSetup
GS
1 GC
N
0 0 1470 869 re
f
GR
GS
1 GC
N
0 0 1470 869 re
f
GR
GS
1 GC
N
126 684 M
1425 684 L
1425 65 L
126 65 L
cp
f
GR
GS
0.873 GC
1 LJ
0.5 LW
N
206.428 684 M
206.428 65 L
S
GR
GS
0.873 GC
1 LJ
0.5 LW
N
370.892 684 M
370.892 65 L
S
GR
GS
0.873 GC
1 LJ
0.5 LW
N
535.356 684 M
535.356 65 L
S
GR
GS
0.873 GC
1 LJ
0.5 LW
N
699.82 684 M
699.82 65 L
S
GR
GS
0.873 GC
1 LJ
0.5 LW
N
864.284 684 M
864.284 65 L
S
GR
GS
0.873 GC
1 LJ
0.5 LW
N
1028.748 684 M
1028.748 65 L
S
GR
GS
0.873 GC
1 LJ
0.5 LW
N
1193.212 684 M
1193.212 65 L
S
GR
GS
0.873 GC
1 LJ
0.5 LW
N
1357.676 684 M
1357.676 65 L
S
GR
GS
0.873 GC
1 LJ
0.5 LW
N
1425 624.665 M
126 624.665 L
S
GR
GS
0.873 GC
1 LJ
0.5 LW
N
1425 537.424 M
126 537.424 L
S
GR
GS
0.873 GC
1 LJ
0.5 LW
N
1425 450.184 M
126 450.184 L
S
GR
GS
0.873 GC
1 LJ
0.5 LW
N
1425 362.943 M
126 362.943 L
S
GR
GS
0.873 GC
1 LJ
0.5 LW
N
1425 275.702 M
126 275.702 L
S
GR
GS
0.873 GC
1 LJ
0.5 LW
N
1425 188.462 M
126 188.462 L
S
GR
GS
0.873 GC
1 LJ
0.5 LW
N
1425 101.221 M
126 101.221 L
S
GR
GS
0.149 GC
2 setlinecap
1 LJ
0.5 LW
N
126 684 M
1425 684 L
S
GR
GS
0.149 GC
2 setlinecap
1 LJ
0.5 LW
N
206.428 684 M
206.428 671.01 L
S
GR
GS
0.149 GC
2 setlinecap
1 LJ
0.5 LW
N
370.892 684 M
370.892 671.01 L
S
GR
GS
0.149 GC
2 setlinecap
1 LJ
0.5 LW
N
535.356 684 M
535.356 671.01 L
S
GR
GS
0.149 GC
2 setlinecap
1 LJ
0.5 LW
N
699.82 684 M
699.82 671.01 L
S
GR
GS
0.149 GC
2 setlinecap
1 LJ
0.5 LW
N
864.284 684 M
864.284 671.01 L
S
GR
GS
0.149 GC
2 setlinecap
1 LJ
0.5 LW
N
1028.748 684 M
1028.748 671.01 L
S
GR
GS
0.149 GC
2 setlinecap
1 LJ
0.5 LW
N
1193.212 684 M
1193.212 671.01 L
S
GR
GS
0.149 GC
2 setlinecap
1 LJ
0.5 LW
N
1357.676 684 M
1357.676 671.01 L
S
GR
GS
[0.86603 -0.5 0.5 0.86603 206.42786 693.20001] CT
0.149 GC
/Helvetica 36 F
GS
[1 0 0 1 0 0] CT
-48 35 moveto 
1 -1 scale
(AR) t 
GR
GR
GS
[0.86603 -0.5 0.5 0.86603 370.89188 693.20001] CT
0.149 GC
/Helvetica 36 F
GS
[1 0 0 1 0 0] CT
-143 35 moveto 
1 -1 scale
(Matched) t 
GR
GR
GS
[0.86603 -0.5 0.5 0.86603 535.3559 693.20001] CT
0.149 GC
/Helvetica 36 F
GS
[1 0 0 1 0 0] CT
-203 35 moveto 
1 -1 scale
(Vencovsky's) t 
GR
GR
GS
[0.86603 -0.5 0.5 0.86603 699.81995 693.20001] CT
0.149 GC
/Helvetica 36 F
GS
[1 0 0 1 0 0] CT
-107 35 moveto 
1 -1 scale
(Lyon's) t 
GR
GR
GS
[0.86603 -0.5 0.5 0.86603 864.284 693.20001] CT
0.149 GC
/Helvetica 36 F
GS
[1 0 0 1 0 0] CT
-129 35 moveto 
1 -1 scale
(Wavelet) t 
GR
GR
GS
[0.86603 -0.5 0.5 0.86603 1028.74805 693.20001] CT
0.149 GC
/Helvetica 36 F
GS
[1 0 0 1 0 0] CT
-97 35 moveto 
1 -1 scale
(DRNL) t 
GR
GR
GS
[0.86603 -0.5 0.5 0.86603 1193.21204 693.20001] CT
0.149 GC
/Helvetica 36 F
GS
[1 0 0 1 0 0] CT
-132 35 moveto 
1 -1 scale
(Seneff's) t 
GR
GR
GS
[0.86603 -0.5 0.5 0.86603 1357.67615 693.20001] CT
0.149 GC
/Helvetica 36 F
GS
[1 0 0 1 0 0] CT
-110 35 moveto 
1 -1 scale
(ERBlet) t 
GR
GR
GS
0.149 GC
2 setlinecap
1 LJ
0.5 LW
N
126 684 M
126 65 L
S
GR
GS
0.149 GC
2 setlinecap
1 LJ
0.5 LW
N
126 624.665 M
138.99 624.665 L
S
GR
GS
0.149 GC
2 setlinecap
1 LJ
0.5 LW
N
126 537.424 M
138.99 537.424 L
S
GR
GS
0.149 GC
2 setlinecap
1 LJ
0.5 LW
N
126 450.184 M
138.99 450.184 L
S
GR
GS
0.149 GC
2 setlinecap
1 LJ
0.5 LW
N
126 362.943 M
138.99 362.943 L
S
GR
GS
0.149 GC
2 setlinecap
1 LJ
0.5 LW
N
126 275.702 M
138.99 275.702 L
S
GR
GS
0.149 GC
2 setlinecap
1 LJ
0.5 LW
N
126 188.462 M
138.99 188.462 L
S
GR
GS
0.149 GC
2 setlinecap
1 LJ
0.5 LW
N
126 101.221 M
138.99 101.221 L
S
GR
GS
[1 0 0 1 116.8 624.66504] CT
0.149 GC
/Helvetica 36 F
GS
[1 0 0 1 0 0] CT
-51 13.5 moveto 
1 -1 scale
(0.4) t 
GR
GR
GS
[1 0 0 1 116.8 537.42444] CT
0.149 GC
/Helvetica 36 F
GS
[1 0 0 1 0 0] CT
-51 13.5 moveto 
1 -1 scale
(0.5) t 
GR
GR
GS
[1 0 0 1 116.8 450.18372] CT
0.149 GC
/Helvetica 36 F
GS
[1 0 0 1 0 0] CT
-51 13.5 moveto 
1 -1 scale
(0.6) t 
GR
GR
GS
[1 0 0 1 116.8 362.94308] CT
0.149 GC
/Helvetica 36 F
GS
[1 0 0 1 0 0] CT
-51 13.5 moveto 
1 -1 scale
(0.7) t 
GR
GR
GS
[1 0 0 1 116.8 275.70239] CT
0.149 GC
/Helvetica 36 F
GS
[1 0 0 1 0 0] CT
-51 13.5 moveto 
1 -1 scale
(0.8) t 
GR
GR
GS
[1 0 0 1 116.8 188.46178] CT
0.149 GC
/Helvetica 36 F
GS
[1 0 0 1 0 0] CT
-51 13.5 moveto 
1 -1 scale
(0.9) t 
GR
GR
GS
[1 0 0 1 116.8 101.22108] CT
0.149 GC
/Helvetica 36 F
GS
[1 0 0 1 0 0] CT
-21 13.5 moveto 
1 -1 scale
(1) t 
GR
GR
GS
[0 -1 1 0 63.3 374.49973] CT
0.149 GC
/Helvetica 39.6 F
GS
[1 0 0 1 0 0] CT
-18.5 -9 moveto 
1 -1 scale
(A') t 
GR
GR
GS
[1 0 0 1 775.50073 60.04997] CT
/Helvetica-Bold 39.6 F
GS
[1 0 0 1 0 0] CT
-376.5 -9 moveto 
1 -1 scale
(A' error plot based on experiment levels) t 
GR
GR
GS
1 0 0 RC
1 LJ
5 LW
N
173.535 403.655 M
173.535 673.74 L
S
GR
GS
1 0 0 RC
1 LJ
5 LW
N
337.999 281.761 M
337.999 298.152 L
S
GR
GS
1 0 0 RC
1 LJ
5 LW
N
502.463 192.097 M
502.463 223.577 L
S
GR
GS
1 0 0 RC
1 LJ
5 LW
N
666.927 173.195 M
666.927 217.39 L
S
GR
GS
1 0 0 RC
1 LJ
5 LW
N
831.391 206.273 M
831.391 287.482 L
S
GR
GS
1 0 0 RC
1 LJ
5 LW
N
995.855 109.945 M
995.855 129.453 L
S
GR
GS
1 0 0 RC
1 LJ
5 LW
N
1160.319 127.393 M
1160.319 185.916 L
S
GR
GS
1 0 0 RC
1 LJ
5 LW
N
1324.783 131.755 M
1324.783 159.982 L
S
GR
GS
1 0 0 RC
1 LJ
5 LW
N
173.535 403.655 M
173.535 133.571 L
S
GR
GS
1 0 0 RC
1 LJ
5 LW
N
337.999 281.761 M
337.999 265.37 L
S
GR
GS
1 0 0 RC
1 LJ
5 LW
N
502.463 192.097 M
502.463 160.617 L
S
GR
GS
1 0 0 RC
1 LJ
5 LW
N
666.927 173.195 M
666.927 128.999 L
S
GR
GS
1 0 0 RC
1 LJ
5 LW
N
831.391 206.273 M
831.391 125.064 L
S
GR
GS
1 0 0 RC
1 LJ
5 LW
N
995.855 109.945 M
995.855 90.438 L
S
GR
GS
1 0 0 RC
1 LJ
5 LW
N
1160.319 127.393 M
1160.319 68.87 L
S
GR
GS
1 0 0 RC
1 LJ
5 LW
N
1324.783 131.755 M
1324.783 103.528 L
S
GR
GS
[1 0 0 1 173.53505 403.65543] CT
1 0 0 RC
N
0 -5.5 M
3.038 -5.5 5.5 -3.038 5.5 0 C
5.5 0 L
5.5 3.038 3.038 5.5 0 5.5 C
-3.038 5.5 -5.5 3.038 -5.5 0 C
-5.5 -3.038 -3.038 -5.5 0 -5.5 C
cp
0 -10.5 M
-5.799 -10.5 -10.5 -5.799 -10.5 0 C
-10.5 5.799 -5.799 10.5 0 10.5 C
5.799 10.5 10.5 5.799 10.5 0 C
10.5 0 L
10.5 -5.799 5.799 -10.5 0 -10.5 C
cp
f
GR
GS
[1 0 0 1 337.99908 281.7608] CT
1 0 0 RC
N
/f551707844{0 -5.5 M
3.038 -5.5 5.5 -3.038 5.5 0 C
5.5 0 L
5.5 3.038 3.038 5.5 0 5.5 C
-3.038 5.5 -5.5 3.038 -5.5 0 C
-5.5 -3.038 -3.038 -5.5 0 -5.5 C
cp
0 -10.5 M
-5.799 -10.5 -10.5 -5.799 -10.5 0 C
-10.5 5.799 -5.799 10.5 0 10.5 C
5.799 10.5 10.5 5.799 10.5 0 C
10.5 0 L
10.5 -5.799 5.799 -10.5 0 -10.5 C
cp}def
f551707844
f
GR
GS
[1 0 0 1 502.4631 192.09679] CT
1 0 0 RC
N
f551707844
f
GR
GS
[1 0 0 1 666.92712 173.19461] CT
1 0 0 RC
N
f551707844
f
GR
GS
[1 0 0 1 831.39124 206.27336] CT
1 0 0 RC
N
f551707844
f
GR
GS
[1 0 0 1 995.85522 109.94514] CT
1 0 0 RC
N
f551707844
f
GR
GS
[1 0 0 1 1160.31934 127.39326] CT
1 0 0 RC
N
f551707844
f
GR
GS
[1 0 0 1 1324.78333 131.75534] CT
1 0 0 RC
N
f551707844
f
GR
GS
[1 0 0 1 173.53505 673.74005] CT
1 0 0 RC
N
-5 0 M
5 0 L
f
GR
GS
[1 0 0 1 173.53505 673.74005] CT
1 0 0 RC
10.0 ML
5 LW
N
-5 0 M
5 0 L
S
GR
GS
[1 0 0 1 337.99908 298.15204] CT
1 0 0 RC
N
/f2097548876{-5 0 M
5 0 L}def
f2097548876
f
GR
GS
[1 0 0 1 337.99908 298.15204] CT
1 0 0 RC
10.0 ML
5 LW
N
-5 0 M
5 0 L
S
GR
GS
[1 0 0 1 502.4631 223.57703] CT
1 0 0 RC
N
f2097548876
f
GR
GS
[1 0 0 1 502.4631 223.57703] CT
1 0 0 RC
10.0 ML
5 LW
N
-5 0 M
5 0 L
S
GR
GS
[1 0 0 1 666.92712 217.39049] CT
1 0 0 RC
N
f2097548876
f
GR
GS
[1 0 0 1 666.92712 217.39049] CT
1 0 0 RC
10.0 ML
5 LW
N
-5 0 M
5 0 L
S
GR
GS
[1 0 0 1 831.39124 287.48233] CT
1 0 0 RC
N
f2097548876
f
GR
GS
[1 0 0 1 831.39124 287.48233] CT
1 0 0 RC
10.0 ML
5 LW
N
-5 0 M
5 0 L
S
GR
GS
[1 0 0 1 995.85522 129.45274] CT
1 0 0 RC
N
f2097548876
f
GR
GS
[1 0 0 1 995.85522 129.45274] CT
1 0 0 RC
10.0 ML
5 LW
N
-5 0 M
5 0 L
S
GR
GS
[1 0 0 1 1160.31934 185.91608] CT
1 0 0 RC
N
f2097548876
f
GR
GS
[1 0 0 1 1160.31934 185.91608] CT
1 0 0 RC
10.0 ML
5 LW
N
-5 0 M
5 0 L
S
GR
GS
[1 0 0 1 1324.78333 159.98244] CT
1 0 0 RC
N
f2097548876
f
GR
GS
[1 0 0 1 1324.78333 159.98244] CT
1 0 0 RC
10.0 ML
5 LW
N
-5 0 M
5 0 L
S
GR
GS
[1 0 0 1 173.53505 133.57074] CT
1 0 0 RC
N
f2097548876
f
GR
GS
[1 0 0 1 173.53505 133.57074] CT
1 0 0 RC
10.0 ML
5 LW
N
-5 0 M
5 0 L
S
GR
GS
[1 0 0 1 337.99908 265.36954] CT
1 0 0 RC
N
f2097548876
f
GR
GS
[1 0 0 1 337.99908 265.36954] CT
1 0 0 RC
10.0 ML
5 LW
N
-5 0 M
5 0 L
S
GR
GS
[1 0 0 1 502.4631 160.61652] CT
1 0 0 RC
N
f2097548876
f
GR
GS
[1 0 0 1 502.4631 160.61652] CT
1 0 0 RC
10.0 ML
5 LW
N
-5 0 M
5 0 L
S
GR
GS
[1 0 0 1 666.92712 128.99875] CT
1 0 0 RC
N
f2097548876
f
GR
GS
[1 0 0 1 666.92712 128.99875] CT
1 0 0 RC
10.0 ML
5 LW
N
-5 0 M
5 0 L
S
GR
GS
[1 0 0 1 831.39124 125.06441] CT
1 0 0 RC
N
f2097548876
f
GR
GS
[1 0 0 1 831.39124 125.06441] CT
1 0 0 RC
10.0 ML
5 LW
N
-5 0 M
5 0 L
S
GR
GS
[1 0 0 1 995.85522 90.43753] CT
1 0 0 RC
N
f2097548876
f
GR
GS
[1 0 0 1 995.85522 90.43753] CT
1 0 0 RC
10.0 ML
5 LW
N
-5 0 M
5 0 L
S
GR
GS
[1 0 0 1 1160.31934 68.87044] CT
1 0 0 RC
N
f2097548876
f
GR
GS
[1 0 0 1 1160.31934 68.87044] CT
1 0 0 RC
10.0 ML
5 LW
N
-5 0 M
5 0 L
S
GR
GS
[1 0 0 1 1324.78333 103.5282] CT
1 0 0 RC
N
f2097548876
f
GR
GS
[1 0 0 1 1324.78333 103.5282] CT
1 0 0 RC
10.0 ML
5 LW
N
-5 0 M
5 0 L
S
GR
GS
0 1 0 RC
1 LJ
5 LW
N
189.981 642.84 M
189.981 684.074 L
S
GR
GS
0 1 0 RC
1 LJ
5 LW
N
354.445 360.952 M
354.445 551.448 L
S
GR
GS
0 1 0 RC
1 LJ
5 LW
N
518.91 285.634 M
518.91 300.044 L
S
GR
GS
0 1 0 RC
1 LJ
5 LW
N
683.374 156.058 M
683.374 199.268 L
S
GR
GS
0 1 0 RC
1 LJ
5 LW
N
847.838 171.741 M
847.838 240.458 L
S
GR
GS
0 1 0 RC
1 LJ
5 LW
N
1012.302 130.665 M
1012.302 160.925 L
S
GR
GS
0 1 0 RC
1 LJ
5 LW
N
1176.766 118.669 M
1176.766 157.684 L
S
GR
GS
0 1 0 RC
1 LJ
5 LW
N
1341.23 126.303 M
1341.23 151.17 L
S
GR
GS
0 1 0 RC
1 LJ
5 LW
N
189.981 642.84 M
189.981 331.504 L
S
GR
GS
0 1 0 RC
1 LJ
5 LW
N
354.445 360.952 M
354.445 170.457 L
S
GR
GS
0 1 0 RC
1 LJ
5 LW
N
518.91 285.634 M
518.91 271.224 L
S
GR
GS
0 1 0 RC
1 LJ
5 LW
N
683.374 156.058 M
683.374 112.848 L
S
GR
GS
0 1 0 RC
1 LJ
5 LW
N
847.838 171.741 M
847.838 103.023 L
S
GR
GS
0 1 0 RC
1 LJ
5 LW
N
1012.302 130.665 M
1012.302 100.404 L
S
GR
GS
0 1 0 RC
1 LJ
5 LW
N
1176.766 118.669 M
1176.766 79.654 L
S
GR
GS
0 1 0 RC
1 LJ
5 LW
N
1341.23 126.303 M
1341.23 101.435 L
S
GR
GS
[1 0 0 1 189.98145 642.84021] CT
0 1 0 RC
10.0 ML
5 LW
N
-6 -6 M
-6 6 L
6 6 L
6 -6 L
cp
S
GR
GS
[1 0 0 1 354.44547 360.95245] CT
0 1 0 RC
10.0 ML
5 LW
N
-6 -6 M
-6 6 L
6 6 L
6 -6 L
cp
S
GR
GS
[1 0 0 1 518.90955 285.63385] CT
0 1 0 RC
10.0 ML
5 LW
N
-6 -6 M
-6 6 L
6 6 L
6 -6 L
cp
S
GR
GS
[1 0 0 1 683.3736 156.05807] CT
0 1 0 RC
10.0 ML
5 LW
N
-6 -6 M
-6 6 L
6 6 L
6 -6 L
cp
S
GR
GS
[1 0 0 1 847.83759 171.7406] CT
0 1 0 RC
10.0 ML
5 LW
N
-6 -6 M
-6 6 L
6 6 L
6 -6 L
cp
S
GR
GS
[1 0 0 1 1012.30164 130.66481] CT
0 1 0 RC
10.0 ML
5 LW
N
-6 -6 M
-6 6 L
6 6 L
6 -6 L
cp
S
GR
GS
[1 0 0 1 1176.76563 118.6692] CT
0 1 0 RC
10.0 ML
5 LW
N
-6 -6 M
-6 6 L
6 6 L
6 -6 L
cp
S
GR
GS
[1 0 0 1 1341.22974 126.30278] CT
0 1 0 RC
10.0 ML
5 LW
N
-6 -6 M
-6 6 L
6 6 L
6 -6 L
cp
S
GR
GS
[1 0 0 1 354.44547 551.44763] CT
0 1 0 RC
N
f2097548876
f
GR
GS
[1 0 0 1 354.44547 551.44763] CT
0 1 0 RC
10.0 ML
5 LW
N
-5 0 M
5 0 L
S
GR
GS
[1 0 0 1 518.90955 300.0441] CT
0 1 0 RC
N
f2097548876
f
GR
GS
[1 0 0 1 518.90955 300.0441] CT
0 1 0 RC
10.0 ML
5 LW
N
-5 0 M
5 0 L
S
GR
GS
[1 0 0 1 683.3736 199.26825] CT
0 1 0 RC
N
f2097548876
f
GR
GS
[1 0 0 1 683.3736 199.26825] CT
0 1 0 RC
10.0 ML
5 LW
N
-5 0 M
5 0 L
S
GR
GS
[1 0 0 1 847.83759 240.45819] CT
0 1 0 RC
N
f2097548876
f
GR
GS
[1 0 0 1 847.83759 240.45819] CT
0 1 0 RC
10.0 ML
5 LW
N
-5 0 M
5 0 L
S
GR
GS
[1 0 0 1 1012.30164 160.92519] CT
0 1 0 RC
N
f2097548876
f
GR
GS
[1 0 0 1 1012.30164 160.92519] CT
0 1 0 RC
10.0 ML
5 LW
N
-5 0 M
5 0 L
S
GR
GS
[1 0 0 1 1176.76563 157.68442] CT
0 1 0 RC
N
f2097548876
f
GR
GS
[1 0 0 1 1176.76563 157.68442] CT
0 1 0 RC
10.0 ML
5 LW
N
-5 0 M
5 0 L
S
GR
GS
[1 0 0 1 1341.22974 151.17018] CT
0 1 0 RC
N
f2097548876
f
GR
GS
[1 0 0 1 1341.22974 151.17018] CT
0 1 0 RC
10.0 ML
5 LW
N
-5 0 M
5 0 L
S
GR
GS
[1 0 0 1 189.98145 331.50372] CT
0 1 0 RC
N
f2097548876
f
GR
GS
[1 0 0 1 189.98145 331.50372] CT
0 1 0 RC
10.0 ML
5 LW
N
-5 0 M
5 0 L
S
GR
GS
[1 0 0 1 354.44547 170.45731] CT
0 1 0 RC
N
f2097548876
f
GR
GS
[1 0 0 1 354.44547 170.45731] CT
0 1 0 RC
10.0 ML
5 LW
N
-5 0 M
5 0 L
S
GR
GS
[1 0 0 1 518.90955 271.22354] CT
0 1 0 RC
N
f2097548876
f
GR
GS
[1 0 0 1 518.90955 271.22354] CT
0 1 0 RC
10.0 ML
5 LW
N
-5 0 M
5 0 L
S
GR
GS
[1 0 0 1 683.3736 112.84791] CT
0 1 0 RC
N
f2097548876
f
GR
GS
[1 0 0 1 683.3736 112.84791] CT
0 1 0 RC
10.0 ML
5 LW
N
-5 0 M
5 0 L
S
GR
GS
[1 0 0 1 847.83759 103.02307] CT
0 1 0 RC
N
f2097548876
f
GR
GS
[1 0 0 1 847.83759 103.02307] CT
0 1 0 RC
10.0 ML
5 LW
N
-5 0 M
5 0 L
S
GR
GS
[1 0 0 1 1012.30164 100.40438] CT
0 1 0 RC
N
f2097548876
f
GR
GS
[1 0 0 1 1012.30164 100.40438] CT
0 1 0 RC
10.0 ML
5 LW
N
-5 0 M
5 0 L
S
GR
GS
[1 0 0 1 1176.76563 79.65398] CT
0 1 0 RC
N
f2097548876
f
GR
GS
[1 0 0 1 1176.76563 79.65398] CT
0 1 0 RC
10.0 ML
5 LW
N
-5 0 M
5 0 L
S
GR
GS
[1 0 0 1 1341.22974 101.43537] CT
0 1 0 RC
N
f2097548876
f
GR
GS
[1 0 0 1 1341.22974 101.43537] CT
0 1 0 RC
10.0 ML
5 LW
N
-5 0 M
5 0 L
S
GR
GS
0 0 1 RC
1 LJ
5 LW
N
206.428 517.312 M
206.428 684.074 L
S
GR
GS
0 0 1 RC
1 LJ
5 LW
N
370.892 258.133 M
370.892 281.147 L
S
GR
GS
0 0 1 RC
1 LJ
5 LW
N
535.356 270.856 M
535.356 298.619 L
S
GR
GS
0 0 1 RC
1 LJ
5 LW
N
699.82 155.356 M
699.82 188.902 L
S
GR
GS
0 0 1 RC
1 LJ
5 LW
N
864.284 134.693 M
864.284 158.549 L
S
GR
GS
0 0 1 RC
1 LJ
5 LW
N
1028.748 190.747 M
1028.748 222.594 L
S
GR
GS
0 0 1 RC
1 LJ
5 LW
N
1193.212 158.37 M
1193.212 182.506 L
S
GR
GS
0 0 1 RC
1 LJ
5 LW
N
1357.676 158.661 M
1357.676 188.364 L
S
GR
GS
0 0 1 RC
1 LJ
5 LW
N
206.428 517.312 M
206.428 195.156 L
S
GR
GS
0 0 1 RC
1 LJ
5 LW
N
370.892 258.133 M
370.892 235.119 L
S
GR
GS
0 0 1 RC
1 LJ
5 LW
N
535.356 270.856 M
535.356 243.093 L
S
GR
GS
0 0 1 RC
1 LJ
5 LW
N
699.82 155.356 M
699.82 121.81 L
S
GR
GS
0 0 1 RC
1 LJ
5 LW
N
864.284 134.693 M
864.284 110.837 L
S
GR
GS
0 0 1 RC
1 LJ
5 LW
N
1028.748 190.747 M
1028.748 158.899 L
S
GR
GS
0 0 1 RC
1 LJ
5 LW
N
1193.212 158.37 M
1193.212 134.234 L
S
GR
GS
0 0 1 RC
1 LJ
5 LW
N
1357.676 158.661 M
1357.676 128.958 L
S
GR
GS
[1 0 0 1 206.42786 517.31195] CT
0 0 1 RC
10.0 ML
5 LW
N
0 -10.664 M
-9.235 5.332 L
9.235 5.332 L
cp
S
GR
GS
[1 0 0 1 370.89188 258.13312] CT
0 0 1 RC
10.0 ML
5 LW
N
0 -10.664 M
-9.235 5.332 L
9.235 5.332 L
cp
S
GR
GS
[1 0 0 1 535.3559 270.85568] CT
0 0 1 RC
10.0 ML
5 LW
N
0 -10.664 M
-9.235 5.332 L
9.235 5.332 L
cp
S
GR
GS
[1 0 0 1 699.81995 155.35614] CT
0 0 1 RC
10.0 ML
5 LW
N
0 -10.664 M
-9.235 5.332 L
9.235 5.332 L
cp
S
GR
GS
[1 0 0 1 864.284 134.69284] CT
0 0 1 RC
10.0 ML
5 LW
N
0 -10.664 M
-9.235 5.332 L
9.235 5.332 L
cp
S
GR
GS
[1 0 0 1 1028.74805 190.74663] CT
0 0 1 RC
10.0 ML
5 LW
N
0 -10.664 M
-9.235 5.332 L
9.235 5.332 L
cp
S
GR
GS
[1 0 0 1 1193.21204 158.36992] CT
0 0 1 RC
10.0 ML
5 LW
N
0 -10.664 M
-9.235 5.332 L
9.235 5.332 L
cp
S
GR
GS
[1 0 0 1 1357.67615 158.66081] CT
0 0 1 RC
10.0 ML
5 LW
N
0 -10.664 M
-9.235 5.332 L
9.235 5.332 L
cp
S
GR
GS
[1 0 0 1 370.89188 281.14697] CT
0 0 1 RC
N
f2097548876
f
GR
GS
[1 0 0 1 370.89188 281.14697] CT
0 0 1 RC
10.0 ML
5 LW
N
-5 0 M
5 0 L
S
GR
GS
[1 0 0 1 535.3559 298.61868] CT
0 0 1 RC
N
f2097548876
f
GR
GS
[1 0 0 1 535.3559 298.61868] CT
0 0 1 RC
10.0 ML
5 LW
N
-5 0 M
5 0 L
S
GR
GS
[1 0 0 1 699.81995 188.90199] CT
0 0 1 RC
N
f2097548876
f
GR
GS
[1 0 0 1 699.81995 188.90199] CT
0 0 1 RC
10.0 ML
5 LW
N
-5 0 M
5 0 L
S
GR
GS
[1 0 0 1 864.284 158.54886] CT
0 0 1 RC
N
f2097548876
f
GR
GS
[1 0 0 1 864.284 158.54886] CT
0 0 1 RC
10.0 ML
5 LW
N
-5 0 M
5 0 L
S
GR
GS
[1 0 0 1 1028.74805 222.59439] CT
0 0 1 RC
N
f2097548876
f
GR
GS
[1 0 0 1 1028.74805 222.59439] CT
0 0 1 RC
10.0 ML
5 LW
N
-5 0 M
5 0 L
S
GR
GS
[1 0 0 1 1193.21204 182.50606] CT
0 0 1 RC
N
f2097548876
f
GR
GS
[1 0 0 1 1193.21204 182.50606] CT
0 0 1 RC
10.0 ML
5 LW
N
-5 0 M
5 0 L
S
GR
GS
[1 0 0 1 1357.67615 188.36386] CT
0 0 1 RC
N
f2097548876
f
GR
GS
[1 0 0 1 1357.67615 188.36386] CT
0 0 1 RC
10.0 ML
5 LW
N
-5 0 M
5 0 L
S
GR
GS
[1 0 0 1 206.42786 195.15619] CT
0 0 1 RC
N
f2097548876
f
GR
GS
[1 0 0 1 206.42786 195.15619] CT
0 0 1 RC
10.0 ML
5 LW
N
-5 0 M
5 0 L
S
GR
GS
[1 0 0 1 370.89188 235.11925] CT
0 0 1 RC
N
f2097548876
f
GR
GS
[1 0 0 1 370.89188 235.11925] CT
0 0 1 RC
10.0 ML
5 LW
N
-5 0 M
5 0 L
S
GR
GS
[1 0 0 1 535.3559 243.09274] CT
0 0 1 RC
N
f2097548876
f
GR
GS
[1 0 0 1 535.3559 243.09274] CT
0 0 1 RC
10.0 ML
5 LW
N
-5 0 M
5 0 L
S
GR
GS
[1 0 0 1 699.81995 121.81023] CT
0 0 1 RC
N
f2097548876
f
GR
GS
[1 0 0 1 699.81995 121.81023] CT
0 0 1 RC
10.0 ML
5 LW
N
-5 0 M
5 0 L
S
GR
GS
[1 0 0 1 864.284 110.83683] CT
0 0 1 RC
N
f2097548876
f
GR
GS
[1 0 0 1 864.284 110.83683] CT
0 0 1 RC
10.0 ML
5 LW
N
-5 0 M
5 0 L
S
GR
GS
[1 0 0 1 1028.74805 158.89886] CT
0 0 1 RC
N
f2097548876
f
GR
GS
[1 0 0 1 1028.74805 158.89886] CT
0 0 1 RC
10.0 ML
5 LW
N
-5 0 M
5 0 L
S
GR
GS
[1 0 0 1 1193.21204 134.2338] CT
0 0 1 RC
N
f2097548876
f
GR
GS
[1 0 0 1 1193.21204 134.2338] CT
0 0 1 RC
10.0 ML
5 LW
N
-5 0 M
5 0 L
S
GR
GS
[1 0 0 1 1357.67615 128.95782] CT
0 0 1 RC
N
f2097548876
f
GR
GS
[1 0 0 1 1357.67615 128.95782] CT
0 0 1 RC
10.0 ML
5 LW
N
-5 0 M
5 0 L
S
GR
GS
0.851 0.325 0.098 RC
1 LJ
5 LW
N
222.874 294.043 M
222.874 334.334 L
S
GR
GS
0.851 0.325 0.098 RC
1 LJ
5 LW
N
387.338 315.802 M
387.338 338.863 L
S
GR
GS
0.851 0.325 0.098 RC
1 LJ
5 LW
N
551.802 279.337 M
551.802 284.478 L
S
GR
GS
0.851 0.325 0.098 RC
1 LJ
5 LW
N
716.266 188.233 M
716.266 221.093 L
S
GR
GS
0.851 0.325 0.098 RC
1 LJ
5 LW
N
880.73 163.636 M
880.73 183.422 L
S
GR
GS
0.851 0.325 0.098 RC
1 LJ
5 LW
N
1045.194 200.678 M
1045.194 212.3 L
S
GR
GS
0.851 0.325 0.098 RC
1 LJ
5 LW
N
1209.658 182.622 M
1209.658 203.722 L
S
GR
GS
0.851 0.325 0.098 RC
1 LJ
5 LW
N
1374.123 180.226 M
1374.123 233.925 L
S
GR
GS
0.851 0.325 0.098 RC
1 LJ
5 LW
N
222.874 294.043 M
222.874 253.752 L
S
GR
GS
0.851 0.325 0.098 RC
1 LJ
5 LW
N
387.338 315.802 M
387.338 292.741 L
S
GR
GS
0.851 0.325 0.098 RC
1 LJ
5 LW
N
551.802 279.337 M
551.802 274.197 L
S
GR
GS
0.851 0.325 0.098 RC
1 LJ
5 LW
N
716.266 188.233 M
716.266 155.372 L
S
GR
GS
0.851 0.325 0.098 RC
1 LJ
5 LW
N
880.73 163.636 M
880.73 143.849 L
S
GR
GS
0.851 0.325 0.098 RC
1 LJ
5 LW
N
1045.194 200.678 M
1045.194 189.056 L
S
GR
GS
0.851 0.325 0.098 RC
1 LJ
5 LW
N
1209.658 182.622 M
1209.658 161.522 L
S
GR
GS
0.851 0.325 0.098 RC
1 LJ
5 LW
N
1374.123 180.226 M
1374.123 126.527 L
S
GR
GS
[1 0 0 1 222.87425 294.04279] CT
0.851 0.325 0.098 RC
10.0 ML
5 LW
N
-8 0 M
0 10.64 L
8 0 L
0 -10.64 L
cp
S
GR
GS
[1 0 0 1 387.33829 315.80212] CT
0.851 0.325 0.098 RC
10.0 ML
5 LW
N
-8 0 M
0 10.64 L
8 0 L
0 -10.64 L
cp
S
GR
GS
[1 0 0 1 551.80231 279.33743] CT
0.851 0.325 0.098 RC
10.0 ML
5 LW
N
-8 0 M
0 10.64 L
8 0 L
0 -10.64 L
cp
S
GR
GS
[1 0 0 1 716.26636 188.23282] CT
0.851 0.325 0.098 RC
10.0 ML
5 LW
N
-8 0 M
0 10.64 L
8 0 L
0 -10.64 L
cp
S
GR
GS
[1 0 0 1 880.73041 163.63571] CT
0.851 0.325 0.098 RC
10.0 ML
5 LW
N
-8 0 M
0 10.64 L
8 0 L
0 -10.64 L
cp
S
GR
GS
[1 0 0 1 1045.19446 200.67812] CT
0.851 0.325 0.098 RC
10.0 ML
5 LW
N
-8 0 M
0 10.64 L
8 0 L
0 -10.64 L
cp
S
GR
GS
[1 0 0 1 1209.65845 182.62177] CT
0.851 0.325 0.098 RC
10.0 ML
5 LW
N
-8 0 M
0 10.64 L
8 0 L
0 -10.64 L
cp
S
GR
GS
[1 0 0 1 1374.12256 180.22572] CT
0.851 0.325 0.098 RC
10.0 ML
5 LW
N
-8 0 M
0 10.64 L
8 0 L
0 -10.64 L
cp
S
GR
GS
[1 0 0 1 222.87425 334.33371] CT
0.851 0.325 0.098 RC
N
f2097548876
f
GR
GS
[1 0 0 1 222.87425 334.33371] CT
0.851 0.325 0.098 RC
10.0 ML
5 LW
N
-5 0 M
5 0 L
S
GR
GS
[1 0 0 1 387.33829 338.86337] CT
0.851 0.325 0.098 RC
N
f2097548876
f
GR
GS
[1 0 0 1 387.33829 338.86337] CT
0.851 0.325 0.098 RC
10.0 ML
5 LW
N
-5 0 M
5 0 L
S
GR
GS
[1 0 0 1 551.80231 284.47815] CT
0.851 0.325 0.098 RC
N
f2097548876
f
GR
GS
[1 0 0 1 551.80231 284.47815] CT
0.851 0.325 0.098 RC
10.0 ML
5 LW
N
-5 0 M
5 0 L
S
GR
GS
[1 0 0 1 716.26636 221.09322] CT
0.851 0.325 0.098 RC
N
f2097548876
f
GR
GS
[1 0 0 1 716.26636 221.09322] CT
0.851 0.325 0.098 RC
10.0 ML
5 LW
N
-5 0 M
5 0 L
S
GR
GS
[1 0 0 1 880.73041 183.42192] CT
0.851 0.325 0.098 RC
N
f2097548876
f
GR
GS
[1 0 0 1 880.73041 183.42192] CT
0.851 0.325 0.098 RC
10.0 ML
5 LW
N
-5 0 M
5 0 L
S
GR
GS
[1 0 0 1 1045.19446 212.30037] CT
0.851 0.325 0.098 RC
N
f2097548876
f
GR
GS
[1 0 0 1 1045.19446 212.30037] CT
0.851 0.325 0.098 RC
10.0 ML
5 LW
N
-5 0 M
5 0 L
S
GR
GS
[1 0 0 1 1209.65845 203.72185] CT
0.851 0.325 0.098 RC
N
f2097548876
f
GR
GS
[1 0 0 1 1209.65845 203.72185] CT
0.851 0.325 0.098 RC
10.0 ML
5 LW
N
-5 0 M
5 0 L
S
GR
GS
[1 0 0 1 1374.12256 233.92471] CT
0.851 0.325 0.098 RC
N
f2097548876
f
GR
GS
[1 0 0 1 1374.12256 233.92471] CT
0.851 0.325 0.098 RC
10.0 ML
5 LW
N
-5 0 M
5 0 L
S
GR
GS
[1 0 0 1 222.87425 253.75186] CT
0.851 0.325 0.098 RC
N
f2097548876
f
GR
GS
[1 0 0 1 222.87425 253.75186] CT
0.851 0.325 0.098 RC
10.0 ML
5 LW
N
-5 0 M
5 0 L
S
GR
GS
[1 0 0 1 387.33829 292.74081] CT
0.851 0.325 0.098 RC
N
f2097548876
f
GR
GS
[1 0 0 1 387.33829 292.74081] CT
0.851 0.325 0.098 RC
10.0 ML
5 LW
N
-5 0 M
5 0 L
S
GR
GS
[1 0 0 1 551.80231 274.19675] CT
0.851 0.325 0.098 RC
N
f2097548876
f
GR
GS
[1 0 0 1 551.80231 274.19675] CT
0.851 0.325 0.098 RC
10.0 ML
5 LW
N
-5 0 M
5 0 L
S
GR
GS
[1 0 0 1 716.26636 155.37242] CT
0.851 0.325 0.098 RC
N
f2097548876
f
GR
GS
[1 0 0 1 716.26636 155.37242] CT
0.851 0.325 0.098 RC
10.0 ML
5 LW
N
-5 0 M
5 0 L
S
GR
GS
[1 0 0 1 880.73041 143.84949] CT
0.851 0.325 0.098 RC
N
f2097548876
f
GR
GS
[1 0 0 1 880.73041 143.84949] CT
0.851 0.325 0.098 RC
10.0 ML
5 LW
N
-5 0 M
5 0 L
S
GR
GS
[1 0 0 1 1045.19446 189.05586] CT
0.851 0.325 0.098 RC
N
f2097548876
f
GR
GS
[1 0 0 1 1045.19446 189.05586] CT
0.851 0.325 0.098 RC
10.0 ML
5 LW
N
-5 0 M
5 0 L
S
GR
GS
[1 0 0 1 1209.65845 161.52162] CT
0.851 0.325 0.098 RC
N
f2097548876
f
GR
GS
[1 0 0 1 1209.65845 161.52162] CT
0.851 0.325 0.098 RC
10.0 ML
5 LW
N
-5 0 M
5 0 L
S
GR
GS
[1 0 0 1 1374.12256 126.52679] CT
0.851 0.325 0.098 RC
N
f2097548876
f
GR
GS
[1 0 0 1 1374.12256 126.52679] CT
0.851 0.325 0.098 RC
10.0 ML
5 LW
N
-5 0 M
5 0 L
S
GR
GS
0.494 0.184 0.557 RC
1 LJ
5 LW
N
239.321 241.083 M
239.321 285.219 L
S
GR
GS
0.494 0.184 0.557 RC
1 LJ
5 LW
N
403.785 311.447 M
403.785 369.285 L
S
GR
GS
0.494 0.184 0.557 RC
1 LJ
5 LW
N
568.249 264.77 M
568.249 334.387 L
S
GR
GS
0.494 0.184 0.557 RC
1 LJ
5 LW
N
732.713 263.992 M
732.713 321.676 L
S
GR
GS
0.494 0.184 0.557 RC
1 LJ
5 LW
N
897.177 241.667 M
897.177 320.37 L
S
GR
GS
0.494 0.184 0.557 RC
1 LJ
5 LW
N
1061.641 242.179 M
1061.641 284.783 L
S
GR
GS
0.494 0.184 0.557 RC
1 LJ
5 LW
N
1226.105 243.212 M
1226.105 294.974 L
S
GR
GS
0.494 0.184 0.557 RC
1 LJ
5 LW
N
1390.569 210.042 M
1390.569 236.143 L
S
GR
GS
0.494 0.184 0.557 RC
1 LJ
5 LW
N
239.321 241.083 M
239.321 196.946 L
S
GR
GS
0.494 0.184 0.557 RC
1 LJ
5 LW
N
403.785 311.447 M
403.785 253.61 L
S
GR
GS
0.494 0.184 0.557 RC
1 LJ
5 LW
N
568.249 264.77 M
568.249 195.154 L
S
GR
GS
0.494 0.184 0.557 RC
1 LJ
5 LW
N
732.713 263.992 M
732.713 206.308 L
S
GR
GS
0.494 0.184 0.557 RC
1 LJ
5 LW
N
897.177 241.667 M
897.177 162.964 L
S
GR
GS
0.494 0.184 0.557 RC
1 LJ
5 LW
N
1061.641 242.179 M
1061.641 199.575 L
S
GR
GS
0.494 0.184 0.557 RC
1 LJ
5 LW
N
1226.105 243.212 M
1226.105 191.45 L
S
GR
GS
0.494 0.184 0.557 RC
1 LJ
5 LW
N
1390.569 210.042 M
1390.569 183.942 L
S
GR
GS
[1 0 0 1 239.32066 241.0826] CT
0.494 0.184 0.557 RC
10.0 ML
5 LW
N
-6.928 -4 M
-2.309 -4 L
0 -8 L
2.309 -4 L
6.928 -4 L
4 0 L
6.928 4 L
2.309 4 L
0 8 L
-2.309 4 L
-6.928 4 L
-4 0 L
cp
S
GR
GS
[1 0 0 1 403.7847 311.44736] CT
0.494 0.184 0.557 RC
10.0 ML
5 LW
N
-6.928 -4 M
-2.309 -4 L
0 -8 L
2.309 -4 L
6.928 -4 L
4 0 L
6.928 4 L
2.309 4 L
0 8 L
-2.309 4 L
-6.928 4 L
-4 0 L
cp
S
GR
GS
[1 0 0 1 568.24872 264.77045] CT
0.494 0.184 0.557 RC
10.0 ML
5 LW
N
-6.928 -4 M
-2.309 -4 L
0 -8 L
2.309 -4 L
6.928 -4 L
4 0 L
6.928 4 L
2.309 4 L
0 8 L
-2.309 4 L
-6.928 4 L
-4 0 L
cp
S
GR
GS
[1 0 0 1 732.71271 263.99207] CT
0.494 0.184 0.557 RC
10.0 ML
5 LW
N
-6.928 -4 M
-2.309 -4 L
0 -8 L
2.309 -4 L
6.928 -4 L
4 0 L
6.928 4 L
2.309 4 L
0 8 L
-2.309 4 L
-6.928 4 L
-4 0 L
cp
S
GR
GS
[1 0 0 1 897.17676 241.66672] CT
0.494 0.184 0.557 RC
10.0 ML
5 LW
N
-6.928 -4 M
-2.309 -4 L
0 -8 L
2.309 -4 L
6.928 -4 L
4 0 L
6.928 4 L
2.309 4 L
0 8 L
-2.309 4 L
-6.928 4 L
-4 0 L
cp
S
GR
GS
[1 0 0 1 1061.64075 242.17891] CT
0.494 0.184 0.557 RC
10.0 ML
5 LW
N
-6.928 -4 M
-2.309 -4 L
0 -8 L
2.309 -4 L
6.928 -4 L
4 0 L
6.928 4 L
2.309 4 L
0 8 L
-2.309 4 L
-6.928 4 L
-4 0 L
cp
S
GR
GS
[1 0 0 1 1226.10486 243.21198] CT
0.494 0.184 0.557 RC
10.0 ML
5 LW
N
-6.928 -4 M
-2.309 -4 L
0 -8 L
2.309 -4 L
6.928 -4 L
4 0 L
6.928 4 L
2.309 4 L
0 8 L
-2.309 4 L
-6.928 4 L
-4 0 L
cp
S
GR
GS
[1 0 0 1 1390.56885 210.04218] CT
0.494 0.184 0.557 RC
10.0 ML
5 LW
N
-6.928 -4 M
-2.309 -4 L
0 -8 L
2.309 -4 L
6.928 -4 L
4 0 L
6.928 4 L
2.309 4 L
0 8 L
-2.309 4 L
-6.928 4 L
-4 0 L
cp
S
GR
GS
[1 0 0 1 239.32066 285.21915] CT
0.494 0.184 0.557 RC
N
f2097548876
f
GR
GS
[1 0 0 1 239.32066 285.21915] CT
0.494 0.184 0.557 RC
10.0 ML
5 LW
N
-5 0 M
5 0 L
S
GR
GS
[1 0 0 1 403.7847 369.28458] CT
0.494 0.184 0.557 RC
N
f2097548876
f
GR
GS
[1 0 0 1 403.7847 369.28458] CT
0.494 0.184 0.557 RC
10.0 ML
5 LW
N
-5 0 M
5 0 L
S
GR
GS
[1 0 0 1 568.24872 334.3866] CT
0.494 0.184 0.557 RC
N
f2097548876
f
GR
GS
[1 0 0 1 568.24872 334.3866] CT
0.494 0.184 0.557 RC
10.0 ML
5 LW
N
-5 0 M
5 0 L
S
GR
GS
[1 0 0 1 732.71271 321.67603] CT
0.494 0.184 0.557 RC
N
f2097548876
f
GR
GS
[1 0 0 1 732.71271 321.67603] CT
0.494 0.184 0.557 RC
10.0 ML
5 LW
N
-5 0 M
5 0 L
S
GR
GS
[1 0 0 1 897.17676 320.36969] CT
0.494 0.184 0.557 RC
N
f2097548876
f
GR
GS
[1 0 0 1 897.17676 320.36969] CT
0.494 0.184 0.557 RC
10.0 ML
5 LW
N
-5 0 M
5 0 L
S
GR
GS
[1 0 0 1 1061.64075 284.78308] CT
0.494 0.184 0.557 RC
N
f2097548876
f
GR
GS
[1 0 0 1 1061.64075 284.78308] CT
0.494 0.184 0.557 RC
10.0 ML
5 LW
N
-5 0 M
5 0 L
S
GR
GS
[1 0 0 1 1226.10486 294.97446] CT
0.494 0.184 0.557 RC
N
f2097548876
f
GR
GS
[1 0 0 1 1226.10486 294.97446] CT
0.494 0.184 0.557 RC
10.0 ML
5 LW
N
-5 0 M
5 0 L
S
GR
GS
[1 0 0 1 1390.56885 236.14281] CT
0.494 0.184 0.557 RC
N
f2097548876
f
GR
GS
[1 0 0 1 1390.56885 236.14281] CT
0.494 0.184 0.557 RC
10.0 ML
5 LW
N
-5 0 M
5 0 L
S
GR
GS
[1 0 0 1 239.32066 196.94606] CT
0.494 0.184 0.557 RC
N
f2097548876
f
GR
GS
[1 0 0 1 239.32066 196.94606] CT
0.494 0.184 0.557 RC
10.0 ML
5 LW
N
-5 0 M
5 0 L
S
GR
GS
[1 0 0 1 403.7847 253.61015] CT
0.494 0.184 0.557 RC
N
f2097548876
f
GR
GS
[1 0 0 1 403.7847 253.61015] CT
0.494 0.184 0.557 RC
10.0 ML
5 LW
N
-5 0 M
5 0 L
S
GR
GS
[1 0 0 1 568.24872 195.15427] CT
0.494 0.184 0.557 RC
N
f2097548876
f
GR
GS
[1 0 0 1 568.24872 195.15427] CT
0.494 0.184 0.557 RC
10.0 ML
5 LW
N
-5 0 M
5 0 L
S
GR
GS
[1 0 0 1 732.71271 206.30811] CT
0.494 0.184 0.557 RC
N
f2097548876
f
GR
GS
[1 0 0 1 732.71271 206.30811] CT
0.494 0.184 0.557 RC
10.0 ML
5 LW
N
-5 0 M
5 0 L
S
GR
GS
[1 0 0 1 897.17676 162.96371] CT
0.494 0.184 0.557 RC
N
f2097548876
f
GR
GS
[1 0 0 1 897.17676 162.96371] CT
0.494 0.184 0.557 RC
10.0 ML
5 LW
N
-5 0 M
5 0 L
S
GR
GS
[1 0 0 1 1061.64075 199.57478] CT
0.494 0.184 0.557 RC
N
f2097548876
f
GR
GS
[1 0 0 1 1061.64075 199.57478] CT
0.494 0.184 0.557 RC
10.0 ML
5 LW
N
-5 0 M
5 0 L
S
GR
GS
[1 0 0 1 1226.10486 191.44955] CT
0.494 0.184 0.557 RC
N
f2097548876
f
GR
GS
[1 0 0 1 1226.10486 191.44955] CT
0.494 0.184 0.557 RC
10.0 ML
5 LW
N
-5 0 M
5 0 L
S
GR
GS
[1 0 0 1 1390.56885 183.94156] CT
0.494 0.184 0.557 RC
N
f2097548876
f
GR
GS
[1 0 0 1 1390.56885 183.94156] CT
0.494 0.184 0.557 RC
10.0 ML
5 LW
N
-5 0 M
5 0 L
S
GR
GS
1 GC
N
/f1774720302{1409 662 M
1409 466 L
1277.5 466 L
1277.5 662 L
cp}def
f1774720302
f
GR
GS
[1 0 0 1 1314.5 487] CT
/Helvetica 32.4 F
GS
[1 0 0 1 0 0] CT
0 12 moveto 
1 -1 scale
(x = 1) t 
GR
GR
GS
[1 0 0 1 1296.5 496] CT
1 0 0 RC
N
/f1394637256{-3 0 M
3 0 L}def
f1394637256
f
GR
GS
[1 0 0 1 1296.5 496] CT
1 0 0 RC
10.0 ML
2 LW
N
-3 0 M
3 0 L
S
GR
GS
[1 0 0 1 1296.5 478] CT
1 0 0 RC
N
f1394637256
f
GR
GS
[1 0 0 1 1296.5 478] CT
1 0 0 RC
10.0 ML
2 LW
N
-3 0 M
3 0 L
S
GR
GS
1 0 0 RC
1 LJ
2 LW
N
1296.5 496 M
1296.5 478 L
S
GR
GS
[1 0 0 1 1296.5 487] CT
1 0 0 RC
N
/f-421279856{0 -2 M
1.105 -2 2 -1.105 2 0 C
2 0 L
2 1.105 1.105 2 0 2 C
-1.105 2 -2 1.105 -2 0 C
-2 -1.105 -1.105 -2 0 -2 C
cp
0 -4 M
-2.209 -4 -4 -2.209 -4 0 C
-4 2.209 -2.209 4 0 4 C
2.209 4 4 2.209 4 0 C
4 0 L
4 -2.209 2.209 -4 0 -4 C
cp}def
f-421279856
f
GR
GS
[1 0 0 1 1314.5 525.5] CT
/Helvetica 32.4 F
GS
[1 0 0 1 0 0] CT
0 12 moveto 
1 -1 scale
(x = 5) t 
GR
GR
GS
[1 0 0 1 1296.5 534.5] CT
0 1 0 RC
N
f1394637256
f
GR
GS
[1 0 0 1 1296.5 534.5] CT
0 1 0 RC
10.0 ML
2 LW
N
-3 0 M
3 0 L
S
GR
GS
[1 0 0 1 1296.5 516.5] CT
0 1 0 RC
N
f1394637256
f
GR
GS
[1 0 0 1 1296.5 516.5] CT
0 1 0 RC
10.0 ML
2 LW
N
-3 0 M
3 0 L
S
GR
GS
0 1 0 RC
1 LJ
2 LW
N
1296.5 534.5 M
1296.5 516.5 L
S
GR
GS
[1 0 0 1 1296.5 525.5] CT
0 1 0 RC
10.0 ML
2 LW
N
-2 -2 M
-2 2 L
2 2 L
2 -2 L
cp
S
GR
GS
[1 0 0 1 1314.5 564] CT
/Helvetica 32.4 F
GS
[1 0 0 1 0 0] CT
0 12 moveto 
1 -1 scale
(x = 10) t 
GR
GR
GS
[1 0 0 1 1296.5 573] CT
0 0 1 RC
N
f1394637256
f
GR
GS
[1 0 0 1 1296.5 573] CT
0 0 1 RC
10.0 ML
2 LW
N
-3 0 M
3 0 L
S
GR
GS
[1 0 0 1 1296.5 555] CT
0 0 1 RC
N
f1394637256
f
GR
GS
[1 0 0 1 1296.5 555] CT
0 0 1 RC
10.0 ML
2 LW
N
-3 0 M
3 0 L
S
GR
GS
0 0 1 RC
1 LJ
2 LW
N
1296.5 573 M
1296.5 555 L
S
GR
GS
[1 0 0 1 1296.5 564] CT
0 0 1 RC
10.0 ML
2 LW
N
0 -3.999 M
-3.463 2 L
3.463 2 L
cp
S
GR
GS
[1 0 0 1 1314.5 602.5] CT
/Helvetica 32.4 F
GS
[1 0 0 1 0 0] CT
0 12 moveto 
1 -1 scale
(x = 25) t 
GR
GR
GS
[1 0 0 1 1296.5 611.5] CT
0.851 0.325 0.098 RC
N
f1394637256
f
GR
GS
[1 0 0 1 1296.5 611.5] CT
0.851 0.325 0.098 RC
10.0 ML
2 LW
N
-3 0 M
3 0 L
S
GR
GS
[1 0 0 1 1296.5 593.5] CT
0.851 0.325 0.098 RC
N
f1394637256
f
GR
GS
[1 0 0 1 1296.5 593.5] CT
0.851 0.325 0.098 RC
10.0 ML
2 LW
N
-3 0 M
3 0 L
S
GR
GS
0.851 0.325 0.098 RC
1 LJ
2 LW
N
1296.5 611.5 M
1296.5 593.5 L
S
GR
GS
[1 0 0 1 1296.5 602.5] CT
0.851 0.325 0.098 RC
10.0 ML
2 LW
N
-3 0 M
0 3.99 L
3 0 L
0 -3.99 L
cp
S
GR
GS
[1 0 0 1 1314.5 641] CT
/Helvetica 32.4 F
GS
[1 0 0 1 0 0] CT
0 12 moveto 
1 -1 scale
(x = 50) t 
GR
GR
GS
[1 0 0 1 1296.5 650] CT
0.494 0.184 0.557 RC
N
f1394637256
f
GR
GS
[1 0 0 1 1296.5 650] CT
0.494 0.184 0.557 RC
10.0 ML
2 LW
N
-3 0 M
3 0 L
S
GR
GS
[1 0 0 1 1296.5 632] CT
0.494 0.184 0.557 RC
N
f1394637256
f
GR
GS
[1 0 0 1 1296.5 632] CT
0.494 0.184 0.557 RC
10.0 ML
2 LW
N
-3 0 M
3 0 L
S
GR
GS
0.494 0.184 0.557 RC
1 LJ
2 LW
N
1296.5 650 M
1296.5 632 L
S
GR
GS
[1 0 0 1 1296.5 641] CT
0.494 0.184 0.557 RC
10.0 ML
2 LW
N
-2.598 -1.5 M
-0.866 -1.5 L
0 -3 L
0.866 -1.5 L
2.598 -1.5 L
1.5 0 L
2.598 1.5 L
0.866 1.5 L
0 3 L
-0.866 1.5 L
-2.598 1.5 L
-1.5 0 L
cp
S
GR
GS
0.149 GC
10.0 ML
0.5 LW
N
1277.5 662 M
1277.5 466 L
1409 466 L
1409 662 L
cp
S
GR
%%Trailer
%%Pages: 1
%%EOF
