%!PS-Adobe-3.0 EPSF-3.0
%%Creator: (MATLAB, The Mathworks, Inc. Version 23.2.0.2428915 \(R2023b\) Update 4. Operating System: Mac OS X)
%%Title: ./Ap_var.eps
%%CreationDate: 2024-04-13T17:34:36
%%Pages: (atend)
%%BoundingBox:    41     0   508   401
%%LanguageLevel: 3
%%EndComments
%%BeginProlog
%%BeginResource: procset (Apache XML Graphics Std ProcSet) 1.2 0
%%Version: 1.2 0
%%Copyright: (Copyright 2001-2003,2010 The Apache Software Foundation. License terms: http://www.apache.org/licenses/LICENSE-2.0)
/bd{bind def}bind def
/ld{load def}bd
/GR/grestore ld
/GS/gsave ld
/RM/rmoveto ld
/C/curveto ld
/t/show ld
/L/lineto ld
/ML/setmiterlimit ld
/CT/concat ld
/f/fill ld
/N/newpath ld
/S/stroke ld
/CC/setcmykcolor ld
/A/ashow ld
/cp/closepath ld
/RC/setrgbcolor ld
/LJ/setlinejoin ld
/GC/setgray ld
/LW/setlinewidth ld
/M/moveto ld
/re {4 2 roll M
1 index 0 rlineto
0 exch rlineto
neg 0 rlineto
cp } bd
/_ctm matrix def
/_tm matrix def
/BT { _ctm currentmatrix pop matrix _tm copy pop 0 0 moveto } bd
/ET { _ctm setmatrix } bd
/iTm { _ctm setmatrix _tm concat } bd
/Tm { _tm astore pop iTm 0 0 moveto } bd
/ux 0.0 def
/uy 0.0 def
/F {
  /Tp exch def
  /Tf exch def
  Tf findfont Tp scalefont setfont
  /cf Tf def  /cs Tp def
} bd
/ULS {currentpoint /uy exch def /ux exch def} bd
/ULE {
  /Tcx currentpoint pop def
  gsave
  newpath
  cf findfont cs scalefont dup
  /FontMatrix get 0 get /Ts exch def /FontInfo get dup
  /UnderlinePosition get Ts mul /To exch def
  /UnderlineThickness get Ts mul /Tt exch def
  ux uy To add moveto  Tcx uy To add lineto
  Tt setlinewidth stroke
  grestore
} bd
/OLE {
  /Tcx currentpoint pop def
  gsave
  newpath
  cf findfont cs scalefont dup
  /FontMatrix get 0 get /Ts exch def /FontInfo get dup
  /UnderlinePosition get Ts mul /To exch def
  /UnderlineThickness get Ts mul /Tt exch def
  ux uy To add cs add moveto Tcx uy To add cs add lineto
  Tt setlinewidth stroke
  grestore
} bd
/SOE {
  /Tcx currentpoint pop def
  gsave
  newpath
  cf findfont cs scalefont dup
  /FontMatrix get 0 get /Ts exch def /FontInfo get dup
  /UnderlinePosition get Ts mul /To exch def
  /UnderlineThickness get Ts mul /Tt exch def
  ux uy To add cs 10 mul 26 idiv add moveto Tcx uy To add cs 10 mul 26 idiv add lineto
  Tt setlinewidth stroke
  grestore
} bd
/QT {
/Y22 exch store
/X22 exch store
/Y21 exch store
/X21 exch store
currentpoint
/Y21 load 2 mul add 3 div exch
/X21 load 2 mul add 3 div exch
/X21 load 2 mul /X22 load add 3 div
/Y21 load 2 mul /Y22 load add 3 div
/X22 load /Y22 load curveto
} bd
/SSPD {
dup length /d exch dict def
{
/v exch def
/k exch def
currentpagedevice k known {
/cpdv currentpagedevice k get def
v cpdv ne {
/upd false def
/nullv v type /nulltype eq def
/nullcpdv cpdv type /nulltype eq def
nullv nullcpdv or
{
/upd true def
} {
/sametype v type cpdv type eq def
sametype {
v type /arraytype eq {
/vlen v length def
/cpdvlen cpdv length def
vlen cpdvlen eq {
0 1 vlen 1 sub {
/i exch def
/obj v i get def
/cpdobj cpdv i get def
obj cpdobj ne {
/upd true def
exit
} if
} for
} {
/upd true def
} ifelse
} {
v type /dicttype eq {
v {
/dv exch def
/dk exch def
/cpddv cpdv dk get def
dv cpddv ne {
/upd true def
exit
} if
} forall
} {
/upd true def
} ifelse
} ifelse
} if
} ifelse
upd true eq {
d k v put
} if
} if
} if
} forall
d length 0 gt {
d setpagedevice
} if
} bd
/RE { % /NewFontName [NewEncodingArray] /FontName RE -
  findfont dup length dict begin
  {
    1 index /FID ne
    {def} {pop pop} ifelse
  } forall
  /Encoding exch def
  /FontName 1 index def
  currentdict definefont pop
  end
} bind def
%%EndResource
%%BeginResource: procset (Apache XML Graphics EPS ProcSet) 1.0 0
%%Version: 1.0 0
%%Copyright: (Copyright 2002-2003 The Apache Software Foundation. License terms: http://www.apache.org/licenses/LICENSE-2.0)
/BeginEPSF { %def
/b4_Inc_state save def         % Save state for cleanup
/dict_count countdictstack def % Count objects on dict stack
/op_count count 1 sub def      % Count objects on operand stack
userdict begin                 % Push userdict on dict stack
/showpage { } def              % Redefine showpage, { } = null proc
0 setgray 0 setlinecap         % Prepare graphics state
1 setlinewidth 0 setlinejoin
10 setmiterlimit [ ] 0 setdash newpath
/languagelevel where           % If level not equal to 1 then
{pop languagelevel             % set strokeadjust and
1 ne                           % overprint to their defaults.
{false setstrokeadjust false setoverprint
} if
} if
} bd
/EndEPSF { %def
count op_count sub {pop} repeat            % Clean up stacks
countdictstack dict_count sub {end} repeat
b4_Inc_state restore
} bd
%%EndResource
%FOPBeginFontDict
%%IncludeResource: font Courier-Oblique
%%IncludeResource: font Courier-BoldOblique
%%IncludeResource: font Courier-Bold
%%IncludeResource: font ZapfDingbats
%%IncludeResource: font Symbol
%%IncludeResource: font Helvetica
%%IncludeResource: font Helvetica-Oblique
%%IncludeResource: font Helvetica-Bold
%%IncludeResource: font Helvetica-BoldOblique
%%IncludeResource: font Times-Roman
%%IncludeResource: font Times-Italic
%%IncludeResource: font Times-Bold
%%IncludeResource: font Times-BoldItalic
%%IncludeResource: font Courier
%FOPEndFontDict
%%BeginResource: encoding WinAnsiEncoding
/WinAnsiEncoding [
/.notdef /.notdef /.notdef /.notdef /.notdef
/.notdef /.notdef /.notdef /.notdef /.notdef
/.notdef /.notdef /.notdef /.notdef /.notdef
/.notdef /.notdef /.notdef /.notdef /.notdef
/.notdef /.notdef /.notdef /.notdef /.notdef
/.notdef /.notdef /.notdef /.notdef /.notdef
/.notdef /.notdef /space /exclam /quotedbl
/numbersign /dollar /percent /ampersand /quotesingle
/parenleft /parenright /asterisk /plus /comma
/hyphen /period /slash /zero /one
/two /three /four /five /six
/seven /eight /nine /colon /semicolon
/less /equal /greater /question /at
/A /B /C /D /E
/F /G /H /I /J
/K /L /M /N /O
/P /Q /R /S /T
/U /V /W /X /Y
/Z /bracketleft /backslash /bracketright /asciicircum
/underscore /quoteleft /a /b /c
/d /e /f /g /h
/i /j /k /l /m
/n /o /p /q /r
/s /t /u /v /w
/x /y /z /braceleft /bar
/braceright /asciitilde /bullet /Euro /bullet
/quotesinglbase /florin /quotedblbase /ellipsis /dagger
/daggerdbl /circumflex /perthousand /Scaron /guilsinglleft
/OE /bullet /Zcaron /bullet /bullet
/quoteleft /quoteright /quotedblleft /quotedblright /bullet
/endash /emdash /asciitilde /trademark /scaron
/guilsinglright /oe /bullet /zcaron /Ydieresis
/space /exclamdown /cent /sterling /currency
/yen /brokenbar /section /dieresis /copyright
/ordfeminine /guillemotleft /logicalnot /sfthyphen /registered
/macron /degree /plusminus /twosuperior /threesuperior
/acute /mu /paragraph /middot /cedilla
/onesuperior /ordmasculine /guillemotright /onequarter /onehalf
/threequarters /questiondown /Agrave /Aacute /Acircumflex
/Atilde /Adieresis /Aring /AE /Ccedilla
/Egrave /Eacute /Ecircumflex /Edieresis /Igrave
/Iacute /Icircumflex /Idieresis /Eth /Ntilde
/Ograve /Oacute /Ocircumflex /Otilde /Odieresis
/multiply /Oslash /Ugrave /Uacute /Ucircumflex
/Udieresis /Yacute /Thorn /germandbls /agrave
/aacute /acircumflex /atilde /adieresis /aring
/ae /ccedilla /egrave /eacute /ecircumflex
/edieresis /igrave /iacute /icircumflex /idieresis
/eth /ntilde /ograve /oacute /ocircumflex
/otilde /odieresis /divide /oslash /ugrave
/uacute /ucircumflex /udieresis /yacute /thorn
/ydieresis
] def
%%EndResource
%FOPBeginFontReencode
/Courier-Oblique findfont
dup length dict begin
  {1 index /FID ne {def} {pop pop} ifelse} forall
  /Encoding WinAnsiEncoding def
  currentdict
end
/Courier-Oblique exch definefont pop
/Courier-BoldOblique findfont
dup length dict begin
  {1 index /FID ne {def} {pop pop} ifelse} forall
  /Encoding WinAnsiEncoding def
  currentdict
end
/Courier-BoldOblique exch definefont pop
/Courier-Bold findfont
dup length dict begin
  {1 index /FID ne {def} {pop pop} ifelse} forall
  /Encoding WinAnsiEncoding def
  currentdict
end
/Courier-Bold exch definefont pop
/Helvetica findfont
dup length dict begin
  {1 index /FID ne {def} {pop pop} ifelse} forall
  /Encoding WinAnsiEncoding def
  currentdict
end
/Helvetica exch definefont pop
/Helvetica-Oblique findfont
dup length dict begin
  {1 index /FID ne {def} {pop pop} ifelse} forall
  /Encoding WinAnsiEncoding def
  currentdict
end
/Helvetica-Oblique exch definefont pop
/Helvetica-Bold findfont
dup length dict begin
  {1 index /FID ne {def} {pop pop} ifelse} forall
  /Encoding WinAnsiEncoding def
  currentdict
end
/Helvetica-Bold exch definefont pop
/Helvetica-BoldOblique findfont
dup length dict begin
  {1 index /FID ne {def} {pop pop} ifelse} forall
  /Encoding WinAnsiEncoding def
  currentdict
end
/Helvetica-BoldOblique exch definefont pop
/Times-Roman findfont
dup length dict begin
  {1 index /FID ne {def} {pop pop} ifelse} forall
  /Encoding WinAnsiEncoding def
  currentdict
end
/Times-Roman exch definefont pop
/Times-Italic findfont
dup length dict begin
  {1 index /FID ne {def} {pop pop} ifelse} forall
  /Encoding WinAnsiEncoding def
  currentdict
end
/Times-Italic exch definefont pop
/Times-Bold findfont
dup length dict begin
  {1 index /FID ne {def} {pop pop} ifelse} forall
  /Encoding WinAnsiEncoding def
  currentdict
end
/Times-Bold exch definefont pop
/Times-BoldItalic findfont
dup length dict begin
  {1 index /FID ne {def} {pop pop} ifelse} forall
  /Encoding WinAnsiEncoding def
  currentdict
end
/Times-BoldItalic exch definefont pop
/Courier findfont
dup length dict begin
  {1 index /FID ne {def} {pop pop} ifelse} forall
  /Encoding WinAnsiEncoding def
  currentdict
end
/Courier exch definefont pop
%FOPEndFontReencode
%%EndProlog
%%Page: 1 1
%%PageBoundingBox: 0 0 560 420
%%BeginPageSetup
N
   41     0 M
  549     0 L
  549   401 L
   41   401 L
cp
clip
[1 0 0 -1 0 420] CT
%%EndPageSetup
GS
1 GC
N
0 0 560 420 re
f
GR
GS
1 GC
N
0 0 560 420 re
f
GR
GS
1 GC
N
73 362.5 M
507 362.5 L
507 31.5 L
73 31.5 L
cp
f
GR
GS
0.873 GC
1 LJ
0.5 LW
N
121.222 362.5 M
121.222 31.5 L
S
GR
GS
0.873 GC
1 LJ
0.5 LW
N
169.444 362.5 M
169.444 31.5 L
S
GR
GS
0.873 GC
1 LJ
0.5 LW
N
217.667 362.5 M
217.667 31.5 L
S
GR
GS
0.873 GC
1 LJ
0.5 LW
N
265.889 362.5 M
265.889 31.5 L
S
GR
GS
0.873 GC
1 LJ
0.5 LW
N
314.111 362.5 M
314.111 31.5 L
S
GR
GS
0.873 GC
1 LJ
0.5 LW
N
362.333 362.5 M
362.333 31.5 L
S
GR
GS
0.873 GC
1 LJ
0.5 LW
N
410.556 362.5 M
410.556 31.5 L
S
GR
GS
0.873 GC
1 LJ
0.5 LW
N
458.778 362.5 M
458.778 31.5 L
S
GR
GS
0.873 GC
1 LJ
0.5 LW
N
507 362.5 M
73 362.5 L
S
GR
GS
0.873 GC
1 LJ
0.5 LW
N
507 307.333 M
73 307.333 L
S
GR
GS
0.873 GC
1 LJ
0.5 LW
N
507 252.167 M
73 252.167 L
S
GR
GS
0.873 GC
1 LJ
0.5 LW
N
507 197 M
73 197 L
S
GR
GS
0.873 GC
1 LJ
0.5 LW
N
507 141.833 M
73 141.833 L
S
GR
GS
0.873 GC
1 LJ
0.5 LW
N
507 86.667 M
73 86.667 L
S
GR
GS
0.873 GC
1 LJ
0.5 LW
N
507 31.5 M
73 31.5 L
S
GR
GS
0.149 GC
2 setlinecap
1 LJ
0.5 LW
N
73 362.5 M
507 362.5 L
S
GR
GS
0.149 GC
2 setlinecap
1 LJ
0.5 LW
N
121.222 362.5 M
121.222 358.16 L
S
GR
GS
0.149 GC
2 setlinecap
1 LJ
0.5 LW
N
169.444 362.5 M
169.444 358.16 L
S
GR
GS
0.149 GC
2 setlinecap
1 LJ
0.5 LW
N
217.667 362.5 M
217.667 358.16 L
S
GR
GS
0.149 GC
2 setlinecap
1 LJ
0.5 LW
N
265.889 362.5 M
265.889 358.16 L
S
GR
GS
0.149 GC
2 setlinecap
1 LJ
0.5 LW
N
314.111 362.5 M
314.111 358.16 L
S
GR
GS
0.149 GC
2 setlinecap
1 LJ
0.5 LW
N
362.333 362.5 M
362.333 358.16 L
S
GR
GS
0.149 GC
2 setlinecap
1 LJ
0.5 LW
N
410.556 362.5 M
410.556 358.16 L
S
GR
GS
0.149 GC
2 setlinecap
1 LJ
0.5 LW
N
458.778 362.5 M
458.778 358.16 L
S
GR
GS
[0.86603 -0.5 0.5 0.86603 121.22222 366.5] CT
0.149 GC
/Helvetica 10 F
GS
[1 0 0 1 0 0] CT
-14 10 moveto 
1 -1 scale
(AR) t 
GR
GR
GS
[0.86603 -0.5 0.5 0.86603 169.44444 366.5] CT
0.149 GC
/Helvetica 10 F
GS
[1 0 0 1 0 0] CT
-40 10 moveto 
1 -1 scale
(Matched) t 
GR
GR
GS
[0.86603 -0.5 0.5 0.86603 217.66667 366.5] CT
0.149 GC
/Helvetica 10 F
GS
[1 0 0 1 0 0] CT
-57 10 moveto 
1 -1 scale
(Vencovsky's) t 
GR
GR
GS
[0.86603 -0.5 0.5 0.86603 265.88889 366.5] CT
0.149 GC
/Helvetica 10 F
GS
[1 0 0 1 0 0] CT
-30 10 moveto 
1 -1 scale
(Lyon's) t 
GR
GR
GS
[0.86603 -0.5 0.5 0.86603 314.11111 366.5] CT
0.149 GC
/Helvetica 10 F
GS
[1 0 0 1 0 0] CT
-36 10 moveto 
1 -1 scale
(Wavelet) t 
GR
GR
GS
[0.86603 -0.5 0.5 0.86603 362.33334 366.5] CT
0.149 GC
/Helvetica 10 F
GS
[1 0 0 1 0 0] CT
-27 10 moveto 
1 -1 scale
(DRNL) t 
GR
GR
GS
[0.86603 -0.5 0.5 0.86603 410.55554 366.5] CT
0.149 GC
/Helvetica 10 F
GS
[1 0 0 1 0 0] CT
-37 10 moveto 
1 -1 scale
(Seneff's) t 
GR
GR
GS
[0.86603 -0.5 0.5 0.86603 458.77777 366.5] CT
0.149 GC
/Helvetica 10 F
GS
[1 0 0 1 0 0] CT
-31 10 moveto 
1 -1 scale
(ERBlet) t 
GR
GR
GS
[1 0 0 1 290.00021 407.07532] CT
0.149 GC
/Helvetica 11 F
GS
[1 0 0 1 0 0] CT
-26.5 11 moveto 
1 -1 scale
(Algorithms) t 
GR
GR
GS
0.149 GC
2 setlinecap
1 LJ
0.5 LW
N
73 362.5 M
73 31.5 L
S
GR
GS
0.149 GC
2 setlinecap
1 LJ
0.5 LW
N
73 362.5 M
77.34 362.5 L
S
GR
GS
0.149 GC
2 setlinecap
1 LJ
0.5 LW
N
73 307.333 M
77.34 307.333 L
S
GR
GS
0.149 GC
2 setlinecap
1 LJ
0.5 LW
N
73 252.167 M
77.34 252.167 L
S
GR
GS
0.149 GC
2 setlinecap
1 LJ
0.5 LW
N
73 197 M
77.34 197 L
S
GR
GS
0.149 GC
2 setlinecap
1 LJ
0.5 LW
N
73 141.833 M
77.34 141.833 L
S
GR
GS
0.149 GC
2 setlinecap
1 LJ
0.5 LW
N
73 86.667 M
77.34 86.667 L
S
GR
GS
0.149 GC
2 setlinecap
1 LJ
0.5 LW
N
73 31.5 M
77.34 31.5 L
S
GR
GS
[1 0 0 1 69 362.5] CT
0.149 GC
/Helvetica 10 F
GS
[1 0 0 1 0 0] CT
-6 3.5 moveto 
1 -1 scale
(0) t 
GR
GR
GS
[1 0 0 1 69 307.33334] CT
0.149 GC
/Helvetica 10 F
GS
[1 0 0 1 0 0] CT
-14 3.5 moveto 
1 -1 scale
(0.2) t 
GR
GR
GS
[1 0 0 1 69 252.16667] CT
0.149 GC
/Helvetica 10 F
GS
[1 0 0 1 0 0] CT
-14 3.5 moveto 
1 -1 scale
(0.4) t 
GR
GR
GS
[1 0 0 1 69 197] CT
0.149 GC
/Helvetica 10 F
GS
[1 0 0 1 0 0] CT
-14 3.5 moveto 
1 -1 scale
(0.6) t 
GR
GR
GS
[1 0 0 1 69 141.83333] CT
0.149 GC
/Helvetica 10 F
GS
[1 0 0 1 0 0] CT
-14 3.5 moveto 
1 -1 scale
(0.8) t 
GR
GR
GS
[1 0 0 1 69 86.66666] CT
0.149 GC
/Helvetica 10 F
GS
[1 0 0 1 0 0] CT
-6 3.5 moveto 
1 -1 scale
(1) t 
GR
GR
GS
[1 0 0 1 69 31.49999] CT
0.149 GC
/Helvetica 10 F
GS
[1 0 0 1 0 0] CT
-14 3.5 moveto 
1 -1 scale
(1.2) t 
GR
GR
GS
[0 -1 1 0 52 196.99983] CT
0.149 GC
/Helvetica 11 F
GS
[1 0 0 1 0 0] CT
-5.5 -3 moveto 
1 -1 scale
(A') t 
GR
GR
GS
[1 0 0 1 290.00027 30.12707] CT
/Helvetica-Bold 11 F
GS
[1 0 0 1 0 0] CT
-105 -3 moveto 
1 -1 scale
(A' error plot based on experiment levels) t 
GR
GR
GS
1 0 0 RC
1 LJ
5 LW
N
111.578 182.289 M
111.578 267.683 L
S
GR
GS
1 0 0 RC
1 LJ
5 LW
N
159.8 143.749 M
159.8 148.931 L
S
GR
GS
1 0 0 RC
1 LJ
5 LW
N
208.022 115.399 M
208.022 125.353 L
S
GR
GS
1 0 0 RC
1 LJ
5 LW
N
256.244 109.423 M
256.244 123.397 L
S
GR
GS
1 0 0 RC
1 LJ
5 LW
N
304.467 119.882 M
304.467 145.558 L
S
GR
GS
1 0 0 RC
1 LJ
5 LW
N
352.689 89.425 M
352.689 95.593 L
S
GR
GS
1 0 0 RC
1 LJ
5 LW
N
400.911 94.942 M
400.911 113.445 L
S
GR
GS
1 0 0 RC
1 LJ
5 LW
N
449.133 96.321 M
449.133 105.246 L
S
GR
GS
1 0 0 RC
1 LJ
5 LW
N
111.578 182.289 M
111.578 96.895 L
S
GR
GS
1 0 0 RC
1 LJ
5 LW
N
159.8 143.749 M
159.8 138.566 L
S
GR
GS
1 0 0 RC
1 LJ
5 LW
N
208.022 115.399 M
208.022 105.446 L
S
GR
GS
1 0 0 RC
1 LJ
5 LW
N
256.244 109.423 M
256.244 95.449 L
S
GR
GS
1 0 0 RC
1 LJ
5 LW
N
304.467 119.882 M
304.467 94.205 L
S
GR
GS
1 0 0 RC
1 LJ
5 LW
N
352.689 89.425 M
352.689 83.257 L
S
GR
GS
1 0 0 RC
1 LJ
5 LW
N
400.911 94.942 M
400.911 76.438 L
S
GR
GS
1 0 0 RC
1 LJ
5 LW
N
449.133 96.321 M
449.133 87.396 L
S
GR
GS
[1 0 0 1 111.57778 182.28889] CT
1 0 0 RC
N
0 -5.5 M
3.038 -5.5 5.5 -3.038 5.5 0 C
5.5 0 L
5.5 3.038 3.038 5.5 0 5.5 C
-3.038 5.5 -5.5 3.038 -5.5 0 C
-5.5 -3.038 -3.038 -5.5 0 -5.5 C
cp
0 -10.5 M
-5.799 -10.5 -10.5 -5.799 -10.5 0 C
-10.5 5.799 -5.799 10.5 0 10.5 C
5.799 10.5 10.5 5.799 10.5 0 C
10.5 0 L
10.5 -5.799 5.799 -10.5 0 -10.5 C
cp
f
GR
GS
[1 0 0 1 159.8 143.74886] CT
1 0 0 RC
N
/f551707844{0 -5.5 M
3.038 -5.5 5.5 -3.038 5.5 0 C
5.5 0 L
5.5 3.038 3.038 5.5 0 5.5 C
-3.038 5.5 -5.5 3.038 -5.5 0 C
-5.5 -3.038 -3.038 -5.5 0 -5.5 C
cp
0 -10.5 M
-5.799 -10.5 -10.5 -5.799 -10.5 0 C
-10.5 5.799 -5.799 10.5 0 10.5 C
5.799 10.5 10.5 5.799 10.5 0 C
10.5 0 L
10.5 -5.799 5.799 -10.5 0 -10.5 C
cp}def
f551707844
f
GR
GS
[1 0 0 1 208.02222 115.39931] CT
1 0 0 RC
N
f551707844
f
GR
GS
[1 0 0 1 256.24445 109.42291] CT
1 0 0 RC
N
f551707844
f
GR
GS
[1 0 0 1 304.46667 119.88159] CT
1 0 0 RC
N
f551707844
f
GR
GS
[1 0 0 1 352.6889 89.425] CT
1 0 0 RC
N
f551707844
f
GR
GS
[1 0 0 1 400.91113 94.94166] CT
1 0 0 RC
N
f551707844
f
GR
GS
[1 0 0 1 449.13333 96.32084] CT
1 0 0 RC
N
f551707844
f
GR
GS
[1 0 0 1 111.57778 267.68295] CT
1 0 0 RC
N
-5 0 M
5 0 L
f
GR
GS
[1 0 0 1 111.57778 267.68295] CT
1 0 0 RC
10.0 ML
5 LW
N
-5 0 M
5 0 L
S
GR
GS
[1 0 0 1 159.8 148.93135] CT
1 0 0 RC
N
/f2097548876{-5 0 M
5 0 L}def
f2097548876
f
GR
GS
[1 0 0 1 159.8 148.93135] CT
1 0 0 RC
10.0 ML
5 LW
N
-5 0 M
5 0 L
S
GR
GS
[1 0 0 1 208.02222 125.35258] CT
1 0 0 RC
N
f2097548876
f
GR
GS
[1 0 0 1 208.02222 125.35258] CT
1 0 0 RC
10.0 ML
5 LW
N
-5 0 M
5 0 L
S
GR
GS
[1 0 0 1 256.24445 123.39655] CT
1 0 0 RC
N
f2097548876
f
GR
GS
[1 0 0 1 256.24445 123.39655] CT
1 0 0 RC
10.0 ML
5 LW
N
-5 0 M
5 0 L
S
GR
GS
[1 0 0 1 304.46667 145.55785] CT
1 0 0 RC
N
f2097548876
f
GR
GS
[1 0 0 1 304.46667 145.55785] CT
1 0 0 RC
10.0 ML
5 LW
N
-5 0 M
5 0 L
S
GR
GS
[1 0 0 1 352.6889 95.59282] CT
1 0 0 RC
N
f2097548876
f
GR
GS
[1 0 0 1 352.6889 95.59282] CT
1 0 0 RC
10.0 ML
5 LW
N
-5 0 M
5 0 L
S
GR
GS
[1 0 0 1 400.91113 113.44512] CT
1 0 0 RC
N
f2097548876
f
GR
GS
[1 0 0 1 400.91113 113.44512] CT
1 0 0 RC
10.0 ML
5 LW
N
-5 0 M
5 0 L
S
GR
GS
[1 0 0 1 449.13333 105.24554] CT
1 0 0 RC
N
f2097548876
f
GR
GS
[1 0 0 1 449.13333 105.24554] CT
1 0 0 RC
10.0 ML
5 LW
N
-5 0 M
5 0 L
S
GR
GS
[1 0 0 1 111.57778 96.89483] CT
1 0 0 RC
N
f2097548876
f
GR
GS
[1 0 0 1 111.57778 96.89483] CT
1 0 0 RC
10.0 ML
5 LW
N
-5 0 M
5 0 L
S
GR
GS
[1 0 0 1 159.8 138.56633] CT
1 0 0 RC
N
f2097548876
f
GR
GS
[1 0 0 1 159.8 138.56633] CT
1 0 0 RC
10.0 ML
5 LW
N
-5 0 M
5 0 L
S
GR
GS
[1 0 0 1 208.02222 105.44603] CT
1 0 0 RC
N
f2097548876
f
GR
GS
[1 0 0 1 208.02222 105.44603] CT
1 0 0 RC
10.0 ML
5 LW
N
-5 0 M
5 0 L
S
GR
GS
[1 0 0 1 256.24445 95.44927] CT
1 0 0 RC
N
f2097548876
f
GR
GS
[1 0 0 1 256.24445 95.44927] CT
1 0 0 RC
10.0 ML
5 LW
N
-5 0 M
5 0 L
S
GR
GS
[1 0 0 1 304.46667 94.20534] CT
1 0 0 RC
N
f2097548876
f
GR
GS
[1 0 0 1 304.46667 94.20534] CT
1 0 0 RC
10.0 ML
5 LW
N
-5 0 M
5 0 L
S
GR
GS
[1 0 0 1 352.6889 83.25718] CT
1 0 0 RC
N
f2097548876
f
GR
GS
[1 0 0 1 352.6889 83.25718] CT
1 0 0 RC
10.0 ML
5 LW
N
-5 0 M
5 0 L
S
GR
GS
[1 0 0 1 400.91113 76.43819] CT
1 0 0 RC
N
f2097548876
f
GR
GS
[1 0 0 1 400.91113 76.43819] CT
1 0 0 RC
10.0 ML
5 LW
N
-5 0 M
5 0 L
S
GR
GS
[1 0 0 1 449.13333 87.39612] CT
1 0 0 RC
N
f2097548876
f
GR
GS
[1 0 0 1 449.13333 87.39612] CT
1 0 0 RC
10.0 ML
5 LW
N
-5 0 M
5 0 L
S
GR
GS
0 1 0 RC
1 LJ
5 LW
N
116.4 257.913 M
116.4 356.35 L
S
GR
GS
0 1 0 RC
1 LJ
5 LW
N
164.622 168.787 M
164.622 229.017 L
S
GR
GS
0 1 0 RC
1 LJ
5 LW
N
212.844 144.973 M
212.844 149.53 L
S
GR
GS
0 1 0 RC
1 LJ
5 LW
N
261.067 104.005 M
261.067 117.667 L
S
GR
GS
0 1 0 RC
1 LJ
5 LW
N
309.289 108.963 M
309.289 130.69 L
S
GR
GS
0 1 0 RC
1 LJ
5 LW
N
357.511 95.976 M
357.511 105.544 L
S
GR
GS
0 1 0 RC
1 LJ
5 LW
N
405.733 92.183 M
405.733 104.519 L
S
GR
GS
0 1 0 RC
1 LJ
5 LW
N
453.956 94.597 M
453.956 102.459 L
S
GR
GS
0 1 0 RC
1 LJ
5 LW
N
116.4 257.913 M
116.4 159.476 L
S
GR
GS
0 1 0 RC
1 LJ
5 LW
N
164.622 168.787 M
164.622 108.557 L
S
GR
GS
0 1 0 RC
1 LJ
5 LW
N
212.844 144.973 M
212.844 140.417 L
S
GR
GS
0 1 0 RC
1 LJ
5 LW
N
261.067 104.005 M
261.067 90.343 L
S
GR
GS
0 1 0 RC
1 LJ
5 LW
N
309.289 108.963 M
309.289 87.236 L
S
GR
GS
0 1 0 RC
1 LJ
5 LW
N
357.511 95.976 M
357.511 86.408 L
S
GR
GS
0 1 0 RC
1 LJ
5 LW
N
405.733 92.183 M
405.733 79.848 L
S
GR
GS
0 1 0 RC
1 LJ
5 LW
N
453.956 94.597 M
453.956 86.734 L
S
GR
GS
[1 0 0 1 116.4 257.91321] CT
0 1 0 RC
10.0 ML
5 LW
N
-6 -6 M
-6 6 L
6 6 L
6 -6 L
cp
S
GR
GS
[1 0 0 1 164.62222 168.78728] CT
0 1 0 RC
10.0 ML
5 LW
N
-6 -6 M
-6 6 L
6 6 L
6 -6 L
cp
S
GR
GS
[1 0 0 1 212.84445 144.9734] CT
0 1 0 RC
10.0 ML
5 LW
N
-6 -6 M
-6 6 L
6 6 L
6 -6 L
cp
S
GR
GS
[1 0 0 1 261.06668 104.00476] CT
0 1 0 RC
10.0 ML
5 LW
N
-6 -6 M
-6 6 L
6 6 L
6 -6 L
cp
S
GR
GS
[1 0 0 1 309.28888 108.96319] CT
0 1 0 RC
10.0 ML
5 LW
N
-6 -6 M
-6 6 L
6 6 L
6 -6 L
cp
S
GR
GS
[1 0 0 1 357.51111 95.97604] CT
0 1 0 RC
10.0 ML
5 LW
N
-6 -6 M
-6 6 L
6 6 L
6 -6 L
cp
S
GR
GS
[1 0 0 1 405.73334 92.18333] CT
0 1 0 RC
10.0 ML
5 LW
N
-6 -6 M
-6 6 L
6 6 L
6 -6 L
cp
S
GR
GS
[1 0 0 1 453.95557 94.59688] CT
0 1 0 RC
10.0 ML
5 LW
N
-6 -6 M
-6 6 L
6 6 L
6 -6 L
cp
S
GR
GS
[1 0 0 1 116.4 356.35007] CT
0 1 0 RC
N
f2097548876
f
GR
GS
[1 0 0 1 116.4 356.35007] CT
0 1 0 RC
10.0 ML
5 LW
N
-5 0 M
5 0 L
S
GR
GS
[1 0 0 1 164.62222 229.01714] CT
0 1 0 RC
N
f2097548876
f
GR
GS
[1 0 0 1 164.62222 229.01714] CT
0 1 0 RC
10.0 ML
5 LW
N
-5 0 M
5 0 L
S
GR
GS
[1 0 0 1 212.84445 149.52957] CT
0 1 0 RC
N
f2097548876
f
GR
GS
[1 0 0 1 212.84445 149.52957] CT
0 1 0 RC
10.0 ML
5 LW
N
-5 0 M
5 0 L
S
GR
GS
[1 0 0 1 261.06668 117.66675] CT
0 1 0 RC
N
f2097548876
f
GR
GS
[1 0 0 1 261.06668 117.66675] CT
0 1 0 RC
10.0 ML
5 LW
N
-5 0 M
5 0 L
S
GR
GS
[1 0 0 1 309.28888 130.68999] CT
0 1 0 RC
N
f2097548876
f
GR
GS
[1 0 0 1 309.28888 130.68999] CT
0 1 0 RC
10.0 ML
5 LW
N
-5 0 M
5 0 L
S
GR
GS
[1 0 0 1 357.51111 105.54362] CT
0 1 0 RC
N
f2097548876
f
GR
GS
[1 0 0 1 357.51111 105.54362] CT
0 1 0 RC
10.0 ML
5 LW
N
-5 0 M
5 0 L
S
GR
GS
[1 0 0 1 405.73334 104.51897] CT
0 1 0 RC
N
f2097548876
f
GR
GS
[1 0 0 1 405.73334 104.51897] CT
0 1 0 RC
10.0 ML
5 LW
N
-5 0 M
5 0 L
S
GR
GS
[1 0 0 1 453.95557 102.45933] CT
0 1 0 RC
N
f2097548876
f
GR
GS
[1 0 0 1 453.95557 102.45933] CT
0 1 0 RC
10.0 ML
5 LW
N
-5 0 M
5 0 L
S
GR
GS
[1 0 0 1 116.4 159.47632] CT
0 1 0 RC
N
f2097548876
f
GR
GS
[1 0 0 1 116.4 159.47632] CT
0 1 0 RC
10.0 ML
5 LW
N
-5 0 M
5 0 L
S
GR
GS
[1 0 0 1 164.62222 108.55744] CT
0 1 0 RC
N
f2097548876
f
GR
GS
[1 0 0 1 164.62222 108.55744] CT
0 1 0 RC
10.0 ML
5 LW
N
-5 0 M
5 0 L
S
GR
GS
[1 0 0 1 212.84445 140.41722] CT
0 1 0 RC
N
f2097548876
f
GR
GS
[1 0 0 1 212.84445 140.41722] CT
0 1 0 RC
10.0 ML
5 LW
N
-5 0 M
5 0 L
S
GR
GS
[1 0 0 1 261.06668 90.34278] CT
0 1 0 RC
N
f2097548876
f
GR
GS
[1 0 0 1 261.06668 90.34278] CT
0 1 0 RC
10.0 ML
5 LW
N
-5 0 M
5 0 L
S
GR
GS
[1 0 0 1 309.28888 87.23641] CT
0 1 0 RC
N
f2097548876
f
GR
GS
[1 0 0 1 309.28888 87.23641] CT
0 1 0 RC
10.0 ML
5 LW
N
-5 0 M
5 0 L
S
GR
GS
[1 0 0 1 357.51111 86.40845] CT
0 1 0 RC
N
f2097548876
f
GR
GS
[1 0 0 1 357.51111 86.40845] CT
0 1 0 RC
10.0 ML
5 LW
N
-5 0 M
5 0 L
S
GR
GS
[1 0 0 1 405.73334 79.84769] CT
0 1 0 RC
N
f2097548876
f
GR
GS
[1 0 0 1 405.73334 79.84769] CT
0 1 0 RC
10.0 ML
5 LW
N
-5 0 M
5 0 L
S
GR
GS
[1 0 0 1 453.95557 86.73442] CT
0 1 0 RC
N
f2097548876
f
GR
GS
[1 0 0 1 453.95557 86.73442] CT
0 1 0 RC
10.0 ML
5 LW
N
-5 0 M
5 0 L
S
GR
GS
0 0 1 RC
1 LJ
5 LW
N
121.222 218.224 M
121.222 320.082 L
S
GR
GS
0 0 1 RC
1 LJ
5 LW
N
169.444 136.278 M
169.444 143.555 L
S
GR
GS
0 0 1 RC
1 LJ
5 LW
N
217.667 140.301 M
217.667 149.079 L
S
GR
GS
0 0 1 RC
1 LJ
5 LW
N
265.889 103.783 M
265.889 114.389 L
S
GR
GS
0 0 1 RC
1 LJ
5 LW
N
314.111 97.25 M
314.111 104.792 L
S
GR
GS
0 0 1 RC
1 LJ
5 LW
N
362.333 114.972 M
362.333 125.042 L
S
GR
GS
0 0 1 RC
1 LJ
5 LW
N
410.556 104.736 M
410.556 112.367 L
S
GR
GS
0 0 1 RC
1 LJ
5 LW
N
458.778 104.828 M
458.778 114.219 L
S
GR
GS
0 0 1 RC
1 LJ
5 LW
N
121.222 218.224 M
121.222 116.367 L
S
GR
GS
0 0 1 RC
1 LJ
5 LW
N
169.444 136.278 M
169.444 129.002 L
S
GR
GS
0 0 1 RC
1 LJ
5 LW
N
217.667 140.301 M
217.667 131.523 L
S
GR
GS
0 0 1 RC
1 LJ
5 LW
N
265.889 103.783 M
265.889 93.176 L
S
GR
GS
0 0 1 RC
1 LJ
5 LW
N
314.111 97.25 M
314.111 89.707 L
S
GR
GS
0 0 1 RC
1 LJ
5 LW
N
362.333 114.972 M
362.333 104.903 L
S
GR
GS
0 0 1 RC
1 LJ
5 LW
N
410.556 104.736 M
410.556 97.104 L
S
GR
GS
0 0 1 RC
1 LJ
5 LW
N
458.778 104.828 M
458.778 95.436 L
S
GR
GS
[1 0 0 1 121.22222 218.22427] CT
0 0 1 RC
10.0 ML
5 LW
N
0 -10.664 M
-9.235 5.332 L
9.235 5.332 L
cp
S
GR
GS
[1 0 0 1 169.44444 136.27837] CT
0 0 1 RC
10.0 ML
5 LW
N
0 -10.664 M
-9.235 5.332 L
9.235 5.332 L
cp
S
GR
GS
[1 0 0 1 217.66667 140.30092] CT
0 0 1 RC
10.0 ML
5 LW
N
0 -10.664 M
-9.235 5.332 L
9.235 5.332 L
cp
S
GR
GS
[1 0 0 1 265.88889 103.78283] CT
0 0 1 RC
10.0 ML
5 LW
N
0 -10.664 M
-9.235 5.332 L
9.235 5.332 L
cp
S
GR
GS
[1 0 0 1 314.11111 97.2496] CT
0 0 1 RC
10.0 ML
5 LW
N
0 -10.664 M
-9.235 5.332 L
9.235 5.332 L
cp
S
GR
GS
[1 0 0 1 362.33334 114.97242] CT
0 0 1 RC
10.0 ML
5 LW
N
0 -10.664 M
-9.235 5.332 L
9.235 5.332 L
cp
S
GR
GS
[1 0 0 1 410.55554 104.73571] CT
0 0 1 RC
10.0 ML
5 LW
N
0 -10.664 M
-9.235 5.332 L
9.235 5.332 L
cp
S
GR
GS
[1 0 0 1 458.77777 104.82768] CT
0 0 1 RC
10.0 ML
5 LW
N
0 -10.664 M
-9.235 5.332 L
9.235 5.332 L
cp
S
GR
GS
[1 0 0 1 121.22222 320.08191] CT
0 0 1 RC
N
f2097548876
f
GR
GS
[1 0 0 1 121.22222 320.08191] CT
0 0 1 RC
10.0 ML
5 LW
N
-5 0 M
5 0 L
S
GR
GS
[1 0 0 1 169.44444 143.55476] CT
0 0 1 RC
N
f2097548876
f
GR
GS
[1 0 0 1 169.44444 143.55476] CT
0 0 1 RC
10.0 ML
5 LW
N
-5 0 M
5 0 L
S
GR
GS
[1 0 0 1 217.66667 149.07889] CT
0 0 1 RC
N
f2097548876
f
GR
GS
[1 0 0 1 217.66667 149.07889] CT
0 0 1 RC
10.0 ML
5 LW
N
-5 0 M
5 0 L
S
GR
GS
[1 0 0 1 265.88889 114.3892] CT
0 0 1 RC
N
f2097548876
f
GR
GS
[1 0 0 1 265.88889 114.3892] CT
0 0 1 RC
10.0 ML
5 LW
N
-5 0 M
5 0 L
S
GR
GS
[1 0 0 1 314.11111 104.79228] CT
0 0 1 RC
N
f2097548876
f
GR
GS
[1 0 0 1 314.11111 104.79228] CT
0 0 1 RC
10.0 ML
5 LW
N
-5 0 M
5 0 L
S
GR
GS
[1 0 0 1 362.33334 125.04189] CT
0 0 1 RC
N
f2097548876
f
GR
GS
[1 0 0 1 362.33334 125.04189] CT
0 0 1 RC
10.0 ML
5 LW
N
-5 0 M
5 0 L
S
GR
GS
[1 0 0 1 410.55554 112.36696] CT
0 0 1 RC
N
f2097548876
f
GR
GS
[1 0 0 1 410.55554 112.36696] CT
0 0 1 RC
10.0 ML
5 LW
N
-5 0 M
5 0 L
S
GR
GS
[1 0 0 1 458.77777 114.21905] CT
0 0 1 RC
N
f2097548876
f
GR
GS
[1 0 0 1 458.77777 114.21905] CT
0 0 1 RC
10.0 ML
5 LW
N
-5 0 M
5 0 L
S
GR
GS
[1 0 0 1 121.22222 116.36662] CT
0 0 1 RC
N
f2097548876
f
GR
GS
[1 0 0 1 121.22222 116.36662] CT
0 0 1 RC
10.0 ML
5 LW
N
-5 0 M
5 0 L
S
GR
GS
[1 0 0 1 169.44444 129.00194] CT
0 0 1 RC
N
f2097548876
f
GR
GS
[1 0 0 1 169.44444 129.00194] CT
0 0 1 RC
10.0 ML
5 LW
N
-5 0 M
5 0 L
S
GR
GS
[1 0 0 1 217.66667 131.52296] CT
0 0 1 RC
N
f2097548876
f
GR
GS
[1 0 0 1 217.66667 131.52296] CT
0 0 1 RC
10.0 ML
5 LW
N
-5 0 M
5 0 L
S
GR
GS
[1 0 0 1 265.88889 93.17645] CT
0 0 1 RC
N
f2097548876
f
GR
GS
[1 0 0 1 265.88889 93.17645] CT
0 0 1 RC
10.0 ML
5 LW
N
-5 0 M
5 0 L
S
GR
GS
[1 0 0 1 314.11111 89.70692] CT
0 0 1 RC
N
f2097548876
f
GR
GS
[1 0 0 1 314.11111 89.70692] CT
0 0 1 RC
10.0 ML
5 LW
N
-5 0 M
5 0 L
S
GR
GS
[1 0 0 1 362.33334 104.90295] CT
0 0 1 RC
N
f2097548876
f
GR
GS
[1 0 0 1 362.33334 104.90295] CT
0 0 1 RC
10.0 ML
5 LW
N
-5 0 M
5 0 L
S
GR
GS
[1 0 0 1 410.55554 97.10446] CT
0 0 1 RC
N
f2097548876
f
GR
GS
[1 0 0 1 410.55554 97.10446] CT
0 0 1 RC
10.0 ML
5 LW
N
-5 0 M
5 0 L
S
GR
GS
[1 0 0 1 458.77777 95.43633] CT
0 0 1 RC
N
f2097548876
f
GR
GS
[1 0 0 1 458.77777 95.43633] CT
0 0 1 RC
10.0 ML
5 LW
N
-5 0 M
5 0 L
S
GR
GS
0.851 0.325 0.098 RC
1 LJ
5 LW
N
126.044 147.632 M
126.044 160.371 L
S
GR
GS
0.851 0.325 0.098 RC
1 LJ
5 LW
N
174.267 154.512 M
174.267 161.803 L
S
GR
GS
0.851 0.325 0.098 RC
1 LJ
5 LW
N
222.489 142.983 M
222.489 144.608 L
S
GR
GS
0.851 0.325 0.098 RC
1 LJ
5 LW
N
270.711 114.178 M
270.711 124.567 L
S
GR
GS
0.851 0.325 0.098 RC
1 LJ
5 LW
N
318.933 106.401 M
318.933 112.657 L
S
GR
GS
0.851 0.325 0.098 RC
1 LJ
5 LW
N
367.156 118.113 M
367.156 121.787 L
S
GR
GS
0.851 0.325 0.098 RC
1 LJ
5 LW
N
415.378 112.404 M
415.378 119.075 L
S
GR
GS
0.851 0.325 0.098 RC
1 LJ
5 LW
N
463.6 111.646 M
463.6 128.624 L
S
GR
GS
0.851 0.325 0.098 RC
1 LJ
5 LW
N
126.044 147.632 M
126.044 134.893 L
S
GR
GS
0.851 0.325 0.098 RC
1 LJ
5 LW
N
174.267 154.512 M
174.267 147.22 L
S
GR
GS
0.851 0.325 0.098 RC
1 LJ
5 LW
N
222.489 142.983 M
222.489 141.357 L
S
GR
GS
0.851 0.325 0.098 RC
1 LJ
5 LW
N
270.711 114.178 M
270.711 103.788 L
S
GR
GS
0.851 0.325 0.098 RC
1 LJ
5 LW
N
318.933 106.401 M
318.933 100.145 L
S
GR
GS
0.851 0.325 0.098 RC
1 LJ
5 LW
N
367.156 118.113 M
367.156 114.438 L
S
GR
GS
0.851 0.325 0.098 RC
1 LJ
5 LW
N
415.378 112.404 M
415.378 105.732 L
S
GR
GS
0.851 0.325 0.098 RC
1 LJ
5 LW
N
463.6 111.646 M
463.6 94.668 L
S
GR
GS
[1 0 0 1 126.04445 147.6321] CT
0.851 0.325 0.098 RC
10.0 ML
5 LW
N
-8 0 M
0 10.64 L
8 0 L
0 -10.64 L
cp
S
GR
GS
[1 0 0 1 174.26666 154.51187] CT
0.851 0.325 0.098 RC
10.0 ML
5 LW
N
-8 0 M
0 10.64 L
8 0 L
0 -10.64 L
cp
S
GR
GS
[1 0 0 1 222.48889 142.98264] CT
0.851 0.325 0.098 RC
10.0 ML
5 LW
N
-8 0 M
0 10.64 L
8 0 L
0 -10.64 L
cp
S
GR
GS
[1 0 0 1 270.71112 114.17762] CT
0.851 0.325 0.098 RC
10.0 ML
5 LW
N
-8 0 M
0 10.64 L
8 0 L
0 -10.64 L
cp
S
GR
GS
[1 0 0 1 318.93332 106.40062] CT
0.851 0.325 0.098 RC
10.0 ML
5 LW
N
-8 0 M
0 10.64 L
8 0 L
0 -10.64 L
cp
S
GR
GS
[1 0 0 1 367.15555 118.11251] CT
0.851 0.325 0.098 RC
10.0 ML
5 LW
N
-8 0 M
0 10.64 L
8 0 L
0 -10.64 L
cp
S
GR
GS
[1 0 0 1 415.37778 112.40354] CT
0.851 0.325 0.098 RC
10.0 ML
5 LW
N
-8 0 M
0 10.64 L
8 0 L
0 -10.64 L
cp
S
GR
GS
[1 0 0 1 463.60001 111.64597] CT
0.851 0.325 0.098 RC
10.0 ML
5 LW
N
-8 0 M
0 10.64 L
8 0 L
0 -10.64 L
cp
S
GR
GS
[1 0 0 1 126.04445 160.37109] CT
0.851 0.325 0.098 RC
N
f2097548876
f
GR
GS
[1 0 0 1 126.04445 160.37109] CT
0.851 0.325 0.098 RC
10.0 ML
5 LW
N
-5 0 M
5 0 L
S
GR
GS
[1 0 0 1 174.26666 161.80327] CT
0.851 0.325 0.098 RC
N
f2097548876
f
GR
GS
[1 0 0 1 174.26666 161.80327] CT
0.851 0.325 0.098 RC
10.0 ML
5 LW
N
-5 0 M
5 0 L
S
GR
GS
[1 0 0 1 222.48889 144.608] CT
0.851 0.325 0.098 RC
N
f2097548876
f
GR
GS
[1 0 0 1 222.48889 144.608] CT
0.851 0.325 0.098 RC
10.0 ML
5 LW
N
-5 0 M
5 0 L
S
GR
GS
[1 0 0 1 270.71112 124.56726] CT
0.851 0.325 0.098 RC
N
f2097548876
f
GR
GS
[1 0 0 1 270.71112 124.56726] CT
0.851 0.325 0.098 RC
10.0 ML
5 LW
N
-5 0 M
5 0 L
S
GR
GS
[1 0 0 1 318.93332 112.65653] CT
0.851 0.325 0.098 RC
N
f2097548876
f
GR
GS
[1 0 0 1 318.93332 112.65653] CT
0.851 0.325 0.098 RC
10.0 ML
5 LW
N
-5 0 M
5 0 L
S
GR
GS
[1 0 0 1 367.15555 121.78718] CT
0.851 0.325 0.098 RC
N
f2097548876
f
GR
GS
[1 0 0 1 367.15555 121.78718] CT
0.851 0.325 0.098 RC
10.0 ML
5 LW
N
-5 0 M
5 0 L
S
GR
GS
[1 0 0 1 415.37778 119.07487] CT
0.851 0.325 0.098 RC
N
f2097548876
f
GR
GS
[1 0 0 1 415.37778 119.07487] CT
0.851 0.325 0.098 RC
10.0 ML
5 LW
N
-5 0 M
5 0 L
S
GR
GS
[1 0 0 1 463.60001 128.62427] CT
0.851 0.325 0.098 RC
N
f2097548876
f
GR
GS
[1 0 0 1 463.60001 128.62427] CT
0.851 0.325 0.098 RC
10.0 ML
5 LW
N
-5 0 M
5 0 L
S
GR
GS
[1 0 0 1 126.04445 134.89311] CT
0.851 0.325 0.098 RC
N
f2097548876
f
GR
GS
[1 0 0 1 126.04445 134.89311] CT
0.851 0.325 0.098 RC
10.0 ML
5 LW
N
-5 0 M
5 0 L
S
GR
GS
[1 0 0 1 174.26666 147.22046] CT
0.851 0.325 0.098 RC
N
f2097548876
f
GR
GS
[1 0 0 1 174.26666 147.22046] CT
0.851 0.325 0.098 RC
10.0 ML
5 LW
N
-5 0 M
5 0 L
S
GR
GS
[1 0 0 1 222.48889 141.35728] CT
0.851 0.325 0.098 RC
N
f2097548876
f
GR
GS
[1 0 0 1 222.48889 141.35728] CT
0.851 0.325 0.098 RC
10.0 ML
5 LW
N
-5 0 M
5 0 L
S
GR
GS
[1 0 0 1 270.71112 103.78797] CT
0.851 0.325 0.098 RC
N
f2097548876
f
GR
GS
[1 0 0 1 270.71112 103.78797] CT
0.851 0.325 0.098 RC
10.0 ML
5 LW
N
-5 0 M
5 0 L
S
GR
GS
[1 0 0 1 318.93332 100.14471] CT
0.851 0.325 0.098 RC
N
f2097548876
f
GR
GS
[1 0 0 1 318.93332 100.14471] CT
0.851 0.325 0.098 RC
10.0 ML
5 LW
N
-5 0 M
5 0 L
S
GR
GS
[1 0 0 1 367.15555 114.43784] CT
0.851 0.325 0.098 RC
N
f2097548876
f
GR
GS
[1 0 0 1 367.15555 114.43784] CT
0.851 0.325 0.098 RC
10.0 ML
5 LW
N
-5 0 M
5 0 L
S
GR
GS
[1 0 0 1 415.37778 105.7322] CT
0.851 0.325 0.098 RC
N
f2097548876
f
GR
GS
[1 0 0 1 415.37778 105.7322] CT
0.851 0.325 0.098 RC
10.0 ML
5 LW
N
-5 0 M
5 0 L
S
GR
GS
[1 0 0 1 463.60001 94.6677] CT
0.851 0.325 0.098 RC
N
f2097548876
f
GR
GS
[1 0 0 1 463.60001 94.6677] CT
0.851 0.325 0.098 RC
10.0 ML
5 LW
N
-5 0 M
5 0 L
S
GR
GS
0.494 0.184 0.557 RC
1 LJ
5 LW
N
130.867 130.887 M
130.867 144.842 L
S
GR
GS
0.494 0.184 0.557 RC
1 LJ
5 LW
N
179.089 153.135 M
179.089 171.422 L
S
GR
GS
0.494 0.184 0.557 RC
1 LJ
5 LW
N
227.311 138.377 M
227.311 160.388 L
S
GR
GS
0.494 0.184 0.557 RC
1 LJ
5 LW
N
275.533 138.131 M
275.533 156.369 L
S
GR
GS
0.494 0.184 0.557 RC
1 LJ
5 LW
N
323.756 131.072 M
323.756 155.956 L
S
GR
GS
0.494 0.184 0.557 RC
1 LJ
5 LW
N
371.978 131.234 M
371.978 144.704 L
S
GR
GS
0.494 0.184 0.557 RC
1 LJ
5 LW
N
420.2 131.561 M
420.2 147.927 L
S
GR
GS
0.494 0.184 0.557 RC
1 LJ
5 LW
N
468.422 121.073 M
468.422 129.326 L
S
GR
GS
0.494 0.184 0.557 RC
1 LJ
5 LW
N
130.867 130.887 M
130.867 116.933 L
S
GR
GS
0.494 0.184 0.557 RC
1 LJ
5 LW
N
179.089 153.135 M
179.089 134.848 L
S
GR
GS
0.494 0.184 0.557 RC
1 LJ
5 LW
N
227.311 138.377 M
227.311 116.366 L
S
GR
GS
0.494 0.184 0.557 RC
1 LJ
5 LW
N
275.533 138.131 M
275.533 119.893 L
S
GR
GS
0.494 0.184 0.557 RC
1 LJ
5 LW
N
323.756 131.072 M
323.756 106.188 L
S
GR
GS
0.494 0.184 0.557 RC
1 LJ
5 LW
N
371.978 131.234 M
371.978 117.764 L
S
GR
GS
0.494 0.184 0.557 RC
1 LJ
5 LW
N
420.2 131.561 M
420.2 115.195 L
S
GR
GS
0.494 0.184 0.557 RC
1 LJ
5 LW
N
468.422 121.073 M
468.422 112.821 L
S
GR
GS
[1 0 0 1 130.86667 130.88741] CT
0.494 0.184 0.557 RC
10.0 ML
5 LW
N
-6.928 -4 M
-2.309 -4 L
0 -8 L
2.309 -4 L
6.928 -4 L
4 0 L
6.928 4 L
2.309 4 L
0 8 L
-2.309 4 L
-6.928 4 L
-4 0 L
cp
S
GR
GS
[1 0 0 1 179.0889 153.13499] CT
0.494 0.184 0.557 RC
10.0 ML
5 LW
N
-6.928 -4 M
-2.309 -4 L
0 -8 L
2.309 -4 L
6.928 -4 L
4 0 L
6.928 4 L
2.309 4 L
0 8 L
-2.309 4 L
-6.928 4 L
-4 0 L
cp
S
GR
GS
[1 0 0 1 227.31111 138.37692] CT
0.494 0.184 0.557 RC
10.0 ML
5 LW
N
-6.928 -4 M
-2.309 -4 L
0 -8 L
2.309 -4 L
6.928 -4 L
4 0 L
6.928 4 L
2.309 4 L
0 8 L
-2.309 4 L
-6.928 4 L
-4 0 L
cp
S
GR
GS
[1 0 0 1 275.53333 138.13081] CT
0.494 0.184 0.557 RC
10.0 ML
5 LW
N
-6.928 -4 M
-2.309 -4 L
0 -8 L
2.309 -4 L
6.928 -4 L
4 0 L
6.928 4 L
2.309 4 L
0 8 L
-2.309 4 L
-6.928 4 L
-4 0 L
cp
S
GR
GS
[1 0 0 1 323.75555 131.07208] CT
0.494 0.184 0.557 RC
10.0 ML
5 LW
N
-6.928 -4 M
-2.309 -4 L
0 -8 L
2.309 -4 L
6.928 -4 L
4 0 L
6.928 4 L
2.309 4 L
0 8 L
-2.309 4 L
-6.928 4 L
-4 0 L
cp
S
GR
GS
[1 0 0 1 371.97778 131.23404] CT
0.494 0.184 0.557 RC
10.0 ML
5 LW
N
-6.928 -4 M
-2.309 -4 L
0 -8 L
2.309 -4 L
6.928 -4 L
4 0 L
6.928 4 L
2.309 4 L
0 8 L
-2.309 4 L
-6.928 4 L
-4 0 L
cp
S
GR
GS
[1 0 0 1 420.19998 131.56067] CT
0.494 0.184 0.557 RC
10.0 ML
5 LW
N
-6.928 -4 M
-2.309 -4 L
0 -8 L
2.309 -4 L
6.928 -4 L
4 0 L
6.928 4 L
2.309 4 L
0 8 L
-2.309 4 L
-6.928 4 L
-4 0 L
cp
S
GR
GS
[1 0 0 1 468.42221 121.0732] CT
0.494 0.184 0.557 RC
10.0 ML
5 LW
N
-6.928 -4 M
-2.309 -4 L
0 -8 L
2.309 -4 L
6.928 -4 L
4 0 L
6.928 4 L
2.309 4 L
0 8 L
-2.309 4 L
-6.928 4 L
-4 0 L
cp
S
GR
GS
[1 0 0 1 130.86667 144.84229] CT
0.494 0.184 0.557 RC
N
f2097548876
f
GR
GS
[1 0 0 1 130.86667 144.84229] CT
0.494 0.184 0.557 RC
10.0 ML
5 LW
N
-5 0 M
5 0 L
S
GR
GS
[1 0 0 1 179.0889 171.42169] CT
0.494 0.184 0.557 RC
N
f2097548876
f
GR
GS
[1 0 0 1 179.0889 171.42169] CT
0.494 0.184 0.557 RC
10.0 ML
5 LW
N
-5 0 M
5 0 L
S
GR
GS
[1 0 0 1 227.31111 160.38782] CT
0.494 0.184 0.557 RC
N
f2097548876
f
GR
GS
[1 0 0 1 227.31111 160.38782] CT
0.494 0.184 0.557 RC
10.0 ML
5 LW
N
-5 0 M
5 0 L
S
GR
GS
[1 0 0 1 275.53333 156.36905] CT
0.494 0.184 0.557 RC
N
f2097548876
f
GR
GS
[1 0 0 1 275.53333 156.36905] CT
0.494 0.184 0.557 RC
10.0 ML
5 LW
N
-5 0 M
5 0 L
S
GR
GS
[1 0 0 1 323.75555 155.95602] CT
0.494 0.184 0.557 RC
N
f2097548876
f
GR
GS
[1 0 0 1 323.75555 155.95602] CT
0.494 0.184 0.557 RC
10.0 ML
5 LW
N
-5 0 M
5 0 L
S
GR
GS
[1 0 0 1 371.97778 144.70441] CT
0.494 0.184 0.557 RC
N
f2097548876
f
GR
GS
[1 0 0 1 371.97778 144.70441] CT
0.494 0.184 0.557 RC
10.0 ML
5 LW
N
-5 0 M
5 0 L
S
GR
GS
[1 0 0 1 420.19998 147.92668] CT
0.494 0.184 0.557 RC
N
f2097548876
f
GR
GS
[1 0 0 1 420.19998 147.92668] CT
0.494 0.184 0.557 RC
10.0 ML
5 LW
N
-5 0 M
5 0 L
S
GR
GS
[1 0 0 1 468.42221 129.32556] CT
0.494 0.184 0.557 RC
N
f2097548876
f
GR
GS
[1 0 0 1 468.42221 129.32556] CT
0.494 0.184 0.557 RC
10.0 ML
5 LW
N
-5 0 M
5 0 L
S
GR
GS
[1 0 0 1 130.86667 116.93253] CT
0.494 0.184 0.557 RC
N
f2097548876
f
GR
GS
[1 0 0 1 130.86667 116.93253] CT
0.494 0.184 0.557 RC
10.0 ML
5 LW
N
-5 0 M
5 0 L
S
GR
GS
[1 0 0 1 179.0889 134.84831] CT
0.494 0.184 0.557 RC
N
f2097548876
f
GR
GS
[1 0 0 1 179.0889 134.84831] CT
0.494 0.184 0.557 RC
10.0 ML
5 LW
N
-5 0 M
5 0 L
S
GR
GS
[1 0 0 1 227.31111 116.366] CT
0.494 0.184 0.557 RC
N
f2097548876
f
GR
GS
[1 0 0 1 227.31111 116.366] CT
0.494 0.184 0.557 RC
10.0 ML
5 LW
N
-5 0 M
5 0 L
S
GR
GS
[1 0 0 1 275.53333 119.89257] CT
0.494 0.184 0.557 RC
N
f2097548876
f
GR
GS
[1 0 0 1 275.53333 119.89257] CT
0.494 0.184 0.557 RC
10.0 ML
5 LW
N
-5 0 M
5 0 L
S
GR
GS
[1 0 0 1 323.75555 106.18816] CT
0.494 0.184 0.557 RC
N
f2097548876
f
GR
GS
[1 0 0 1 323.75555 106.18816] CT
0.494 0.184 0.557 RC
10.0 ML
5 LW
N
-5 0 M
5 0 L
S
GR
GS
[1 0 0 1 371.97778 117.76366] CT
0.494 0.184 0.557 RC
N
f2097548876
f
GR
GS
[1 0 0 1 371.97778 117.76366] CT
0.494 0.184 0.557 RC
10.0 ML
5 LW
N
-5 0 M
5 0 L
S
GR
GS
[1 0 0 1 420.19998 115.19467] CT
0.494 0.184 0.557 RC
N
f2097548876
f
GR
GS
[1 0 0 1 420.19998 115.19467] CT
0.494 0.184 0.557 RC
10.0 ML
5 LW
N
-5 0 M
5 0 L
S
GR
GS
[1 0 0 1 468.42221 112.82083] CT
0.494 0.184 0.557 RC
N
f2097548876
f
GR
GS
[1 0 0 1 468.42221 112.82083] CT
0.494 0.184 0.557 RC
10.0 ML
5 LW
N
-5 0 M
5 0 L
S
GR
GS
1 GC
N
/f583180240{499 100.5 M
499 39.5 L
432.5 39.5 L
432.5 100.5 L
cp}def
f583180240
f
GR
GS
[1 0 0 1 469.5 47] CT
/Helvetica 9 F
GS
[1 0 0 1 0 0] CT
0 3.5 moveto 
1 -1 scale
(x = 1) t 
GR
GR
GS
[1 0 0 1 451.5 51.125] CT
1 0 0 RC
N
/f1394637256{-3 0 M
3 0 L}def
f1394637256
f
GR
GS
[1 0 0 1 451.5 51.125] CT
1 0 0 RC
10.0 ML
2 LW
N
-3 0 M
3 0 L
S
GR
GS
[1 0 0 1 451.5 42.875] CT
1 0 0 RC
N
f1394637256
f
GR
GS
[1 0 0 1 451.5 42.875] CT
1 0 0 RC
10.0 ML
2 LW
N
-3 0 M
3 0 L
S
GR
GS
1 0 0 RC
1 LJ
2 LW
N
451.5 51.125 M
451.5 42.875 L
S
GR
GS
[1 0 0 1 451.5 47] CT
1 0 0 RC
N
/f-421279856{0 -2 M
1.105 -2 2 -1.105 2 0 C
2 0 L
2 1.105 1.105 2 0 2 C
-1.105 2 -2 1.105 -2 0 C
-2 -1.105 -1.105 -2 0 -2 C
cp
0 -4 M
-2.209 -4 -4 -2.209 -4 0 C
-4 2.209 -2.209 4 0 4 C
2.209 4 4 2.209 4 0 C
4 0 L
4 -2.209 2.209 -4 0 -4 C
cp}def
f-421279856
f
GR
GS
[1 0 0 1 469.5 58.5] CT
/Helvetica 9 F
GS
[1 0 0 1 0 0] CT
0 3.5 moveto 
1 -1 scale
(x = 5) t 
GR
GR
GS
[1 0 0 1 451.5 62.625] CT
0 1 0 RC
N
f1394637256
f
GR
GS
[1 0 0 1 451.5 62.625] CT
0 1 0 RC
10.0 ML
2 LW
N
-3 0 M
3 0 L
S
GR
GS
[1 0 0 1 451.5 54.375] CT
0 1 0 RC
N
f1394637256
f
GR
GS
[1 0 0 1 451.5 54.375] CT
0 1 0 RC
10.0 ML
2 LW
N
-3 0 M
3 0 L
S
GR
GS
0 1 0 RC
1 LJ
2 LW
N
451.5 62.625 M
451.5 54.375 L
S
GR
GS
[1 0 0 1 451.5 58.5] CT
0 1 0 RC
10.0 ML
2 LW
N
-2 -2 M
-2 2 L
2 2 L
2 -2 L
cp
S
GR
GS
[1 0 0 1 469.5 70] CT
/Helvetica 9 F
GS
[1 0 0 1 0 0] CT
0 3.5 moveto 
1 -1 scale
(x = 10) t 
GR
GR
GS
[1 0 0 1 451.5 74.125] CT
0 0 1 RC
N
f1394637256
f
GR
GS
[1 0 0 1 451.5 74.125] CT
0 0 1 RC
10.0 ML
2 LW
N
-3 0 M
3 0 L
S
GR
GS
[1 0 0 1 451.5 65.875] CT
0 0 1 RC
N
f1394637256
f
GR
GS
[1 0 0 1 451.5 65.875] CT
0 0 1 RC
10.0 ML
2 LW
N
-3 0 M
3 0 L
S
GR
GS
0 0 1 RC
1 LJ
2 LW
N
451.5 74.125 M
451.5 65.875 L
S
GR
GS
[1 0 0 1 451.5 70] CT
0 0 1 RC
10.0 ML
2 LW
N
0 -3.999 M
-3.463 2 L
3.463 2 L
cp
S
GR
GS
[1 0 0 1 469.5 81.5] CT
/Helvetica 9 F
GS
[1 0 0 1 0 0] CT
0 3.5 moveto 
1 -1 scale
(x = 25) t 
GR
GR
GS
[1 0 0 1 451.5 85.625] CT
0.851 0.325 0.098 RC
N
f1394637256
f
GR
GS
[1 0 0 1 451.5 85.625] CT
0.851 0.325 0.098 RC
10.0 ML
2 LW
N
-3 0 M
3 0 L
S
GR
GS
[1 0 0 1 451.5 77.375] CT
0.851 0.325 0.098 RC
N
f1394637256
f
GR
GS
[1 0 0 1 451.5 77.375] CT
0.851 0.325 0.098 RC
10.0 ML
2 LW
N
-3 0 M
3 0 L
S
GR
GS
0.851 0.325 0.098 RC
1 LJ
2 LW
N
451.5 85.625 M
451.5 77.375 L
S
GR
GS
[1 0 0 1 451.5 81.5] CT
0.851 0.325 0.098 RC
10.0 ML
2 LW
N
-3 0 M
0 3.99 L
3 0 L
0 -3.99 L
cp
S
GR
GS
[1 0 0 1 469.5 93] CT
/Helvetica 9 F
GS
[1 0 0 1 0 0] CT
0 3.5 moveto 
1 -1 scale
(x = 50) t 
GR
GR
GS
[1 0 0 1 451.5 97.125] CT
0.494 0.184 0.557 RC
N
f1394637256
f
GR
GS
[1 0 0 1 451.5 97.125] CT
0.494 0.184 0.557 RC
10.0 ML
2 LW
N
-3 0 M
3 0 L
S
GR
GS
[1 0 0 1 451.5 88.875] CT
0.494 0.184 0.557 RC
N
f1394637256
f
GR
GS
[1 0 0 1 451.5 88.875] CT
0.494 0.184 0.557 RC
10.0 ML
2 LW
N
-3 0 M
3 0 L
S
GR
GS
0.494 0.184 0.557 RC
1 LJ
2 LW
N
451.5 97.125 M
451.5 88.875 L
S
GR
GS
[1 0 0 1 451.5 93] CT
0.494 0.184 0.557 RC
10.0 ML
2 LW
N
-2.598 -1.5 M
-0.866 -1.5 L
0 -3 L
0.866 -1.5 L
2.598 -1.5 L
1.5 0 L
2.598 1.5 L
0.866 1.5 L
0 3 L
-0.866 1.5 L
-2.598 1.5 L
-1.5 0 L
cp
S
GR
GS
0.149 GC
10.0 ML
0.5 LW
N
432.5 100.5 M
432.5 39.5 L
499 39.5 L
499 100.5 L
cp
S
GR
%%Trailer
%%Pages: 1
%%EOF
