%!PS-Adobe-3.0 EPSF-3.0
%%Creator: (MATLAB, The Mathworks, Inc. Version 23.2.0.2428915 \(R2023b\) Update 4. Operating System: Mac OS X)
%%Title: /Users/ardaozdogru/Desktop/Article/USED_CODES/par_analysis/Matlab_Code_REV2/erbletHF.eps
%%CreationDate: 2024-03-21T17:23:17
%%Pages: (atend)
%%BoundingBox:     0     0  1920  1029
%%LanguageLevel: 3
%%EndComments
%%BeginProlog
%%BeginResource: procset (Apache XML Graphics Std ProcSet) 1.2 0
%%Version: 1.2 0
%%Copyright: (Copyright 2001-2003,2010 The Apache Software Foundation. License terms: http://www.apache.org/licenses/LICENSE-2.0)
/bd{bind def}bind def
/ld{load def}bd
/GR/grestore ld
/GS/gsave ld
/RM/rmoveto ld
/C/curveto ld
/t/show ld
/L/lineto ld
/ML/setmiterlimit ld
/CT/concat ld
/f/fill ld
/N/newpath ld
/S/stroke ld
/CC/setcmykcolor ld
/A/ashow ld
/cp/closepath ld
/RC/setrgbcolor ld
/LJ/setlinejoin ld
/GC/setgray ld
/LW/setlinewidth ld
/M/moveto ld
/re {4 2 roll M
1 index 0 rlineto
0 exch rlineto
neg 0 rlineto
cp } bd
/_ctm matrix def
/_tm matrix def
/BT { _ctm currentmatrix pop matrix _tm copy pop 0 0 moveto } bd
/ET { _ctm setmatrix } bd
/iTm { _ctm setmatrix _tm concat } bd
/Tm { _tm astore pop iTm 0 0 moveto } bd
/ux 0.0 def
/uy 0.0 def
/F {
  /Tp exch def
  /Tf exch def
  Tf findfont Tp scalefont setfont
  /cf Tf def  /cs Tp def
} bd
/ULS {currentpoint /uy exch def /ux exch def} bd
/ULE {
  /Tcx currentpoint pop def
  gsave
  newpath
  cf findfont cs scalefont dup
  /FontMatrix get 0 get /Ts exch def /FontInfo get dup
  /UnderlinePosition get Ts mul /To exch def
  /UnderlineThickness get Ts mul /Tt exch def
  ux uy To add moveto  Tcx uy To add lineto
  Tt setlinewidth stroke
  grestore
} bd
/OLE {
  /Tcx currentpoint pop def
  gsave
  newpath
  cf findfont cs scalefont dup
  /FontMatrix get 0 get /Ts exch def /FontInfo get dup
  /UnderlinePosition get Ts mul /To exch def
  /UnderlineThickness get Ts mul /Tt exch def
  ux uy To add cs add moveto Tcx uy To add cs add lineto
  Tt setlinewidth stroke
  grestore
} bd
/SOE {
  /Tcx currentpoint pop def
  gsave
  newpath
  cf findfont cs scalefont dup
  /FontMatrix get 0 get /Ts exch def /FontInfo get dup
  /UnderlinePosition get Ts mul /To exch def
  /UnderlineThickness get Ts mul /Tt exch def
  ux uy To add cs 10 mul 26 idiv add moveto Tcx uy To add cs 10 mul 26 idiv add lineto
  Tt setlinewidth stroke
  grestore
} bd
/QT {
/Y22 exch store
/X22 exch store
/Y21 exch store
/X21 exch store
currentpoint
/Y21 load 2 mul add 3 div exch
/X21 load 2 mul add 3 div exch
/X21 load 2 mul /X22 load add 3 div
/Y21 load 2 mul /Y22 load add 3 div
/X22 load /Y22 load curveto
} bd
/SSPD {
dup length /d exch dict def
{
/v exch def
/k exch def
currentpagedevice k known {
/cpdv currentpagedevice k get def
v cpdv ne {
/upd false def
/nullv v type /nulltype eq def
/nullcpdv cpdv type /nulltype eq def
nullv nullcpdv or
{
/upd true def
} {
/sametype v type cpdv type eq def
sametype {
v type /arraytype eq {
/vlen v length def
/cpdvlen cpdv length def
vlen cpdvlen eq {
0 1 vlen 1 sub {
/i exch def
/obj v i get def
/cpdobj cpdv i get def
obj cpdobj ne {
/upd true def
exit
} if
} for
} {
/upd true def
} ifelse
} {
v type /dicttype eq {
v {
/dv exch def
/dk exch def
/cpddv cpdv dk get def
dv cpddv ne {
/upd true def
exit
} if
} forall
} {
/upd true def
} ifelse
} ifelse
} if
} ifelse
upd true eq {
d k v put
} if
} if
} if
} forall
d length 0 gt {
d setpagedevice
} if
} bd
/RE { % /NewFontName [NewEncodingArray] /FontName RE -
  findfont dup length dict begin
  {
    1 index /FID ne
    {def} {pop pop} ifelse
  } forall
  /Encoding exch def
  /FontName 1 index def
  currentdict definefont pop
  end
} bind def
%%EndResource
%%BeginResource: procset (Apache XML Graphics EPS ProcSet) 1.0 0
%%Version: 1.0 0
%%Copyright: (Copyright 2002-2003 The Apache Software Foundation. License terms: http://www.apache.org/licenses/LICENSE-2.0)
/BeginEPSF { %def
/b4_Inc_state save def         % Save state for cleanup
/dict_count countdictstack def % Count objects on dict stack
/op_count count 1 sub def      % Count objects on operand stack
userdict begin                 % Push userdict on dict stack
/showpage { } def              % Redefine showpage, { } = null proc
0 setgray 0 setlinecap         % Prepare graphics state
1 setlinewidth 0 setlinejoin
10 setmiterlimit [ ] 0 setdash newpath
/languagelevel where           % If level not equal to 1 then
{pop languagelevel             % set strokeadjust and
1 ne                           % overprint to their defaults.
{false setstrokeadjust false setoverprint
} if
} if
} bd
/EndEPSF { %def
count op_count sub {pop} repeat            % Clean up stacks
countdictstack dict_count sub {end} repeat
b4_Inc_state restore
} bd
%%EndResource
%FOPBeginFontDict
%%IncludeResource: font Courier-Oblique
%%IncludeResource: font Courier-BoldOblique
%%IncludeResource: font Courier-Bold
%%IncludeResource: font ZapfDingbats
%%IncludeResource: font Symbol
%%IncludeResource: font Helvetica
%%IncludeResource: font Helvetica-Oblique
%%IncludeResource: font Helvetica-Bold
%%IncludeResource: font Helvetica-BoldOblique
%%IncludeResource: font Times-Roman
%%IncludeResource: font Times-Italic
%%IncludeResource: font Times-Bold
%%IncludeResource: font Times-BoldItalic
%%IncludeResource: font Courier
%FOPEndFontDict
%%BeginResource: encoding WinAnsiEncoding
/WinAnsiEncoding [
/.notdef /.notdef /.notdef /.notdef /.notdef
/.notdef /.notdef /.notdef /.notdef /.notdef
/.notdef /.notdef /.notdef /.notdef /.notdef
/.notdef /.notdef /.notdef /.notdef /.notdef
/.notdef /.notdef /.notdef /.notdef /.notdef
/.notdef /.notdef /.notdef /.notdef /.notdef
/.notdef /.notdef /space /exclam /quotedbl
/numbersign /dollar /percent /ampersand /quotesingle
/parenleft /parenright /asterisk /plus /comma
/hyphen /period /slash /zero /one
/two /three /four /five /six
/seven /eight /nine /colon /semicolon
/less /equal /greater /question /at
/A /B /C /D /E
/F /G /H /I /J
/K /L /M /N /O
/P /Q /R /S /T
/U /V /W /X /Y
/Z /bracketleft /backslash /bracketright /asciicircum
/underscore /quoteleft /a /b /c
/d /e /f /g /h
/i /j /k /l /m
/n /o /p /q /r
/s /t /u /v /w
/x /y /z /braceleft /bar
/braceright /asciitilde /bullet /Euro /bullet
/quotesinglbase /florin /quotedblbase /ellipsis /dagger
/daggerdbl /circumflex /perthousand /Scaron /guilsinglleft
/OE /bullet /Zcaron /bullet /bullet
/quoteleft /quoteright /quotedblleft /quotedblright /bullet
/endash /emdash /asciitilde /trademark /scaron
/guilsinglright /oe /bullet /zcaron /Ydieresis
/space /exclamdown /cent /sterling /currency
/yen /brokenbar /section /dieresis /copyright
/ordfeminine /guillemotleft /logicalnot /sfthyphen /registered
/macron /degree /plusminus /twosuperior /threesuperior
/acute /mu /paragraph /middot /cedilla
/onesuperior /ordmasculine /guillemotright /onequarter /onehalf
/threequarters /questiondown /Agrave /Aacute /Acircumflex
/Atilde /Adieresis /Aring /AE /Ccedilla
/Egrave /Eacute /Ecircumflex /Edieresis /Igrave
/Iacute /Icircumflex /Idieresis /Eth /Ntilde
/Ograve /Oacute /Ocircumflex /Otilde /Odieresis
/multiply /Oslash /Ugrave /Uacute /Ucircumflex
/Udieresis /Yacute /Thorn /germandbls /agrave
/aacute /acircumflex /atilde /adieresis /aring
/ae /ccedilla /egrave /eacute /ecircumflex
/edieresis /igrave /iacute /icircumflex /idieresis
/eth /ntilde /ograve /oacute /ocircumflex
/otilde /odieresis /divide /oslash /ugrave
/uacute /ucircumflex /udieresis /yacute /thorn
/ydieresis
] def
%%EndResource
%FOPBeginFontReencode
/Courier-Oblique findfont
dup length dict begin
  {1 index /FID ne {def} {pop pop} ifelse} forall
  /Encoding WinAnsiEncoding def
  currentdict
end
/Courier-Oblique exch definefont pop
/Courier-BoldOblique findfont
dup length dict begin
  {1 index /FID ne {def} {pop pop} ifelse} forall
  /Encoding WinAnsiEncoding def
  currentdict
end
/Courier-BoldOblique exch definefont pop
/Courier-Bold findfont
dup length dict begin
  {1 index /FID ne {def} {pop pop} ifelse} forall
  /Encoding WinAnsiEncoding def
  currentdict
end
/Courier-Bold exch definefont pop
/Helvetica findfont
dup length dict begin
  {1 index /FID ne {def} {pop pop} ifelse} forall
  /Encoding WinAnsiEncoding def
  currentdict
end
/Helvetica exch definefont pop
/Helvetica-Oblique findfont
dup length dict begin
  {1 index /FID ne {def} {pop pop} ifelse} forall
  /Encoding WinAnsiEncoding def
  currentdict
end
/Helvetica-Oblique exch definefont pop
/Helvetica-Bold findfont
dup length dict begin
  {1 index /FID ne {def} {pop pop} ifelse} forall
  /Encoding WinAnsiEncoding def
  currentdict
end
/Helvetica-Bold exch definefont pop
/Helvetica-BoldOblique findfont
dup length dict begin
  {1 index /FID ne {def} {pop pop} ifelse} forall
  /Encoding WinAnsiEncoding def
  currentdict
end
/Helvetica-BoldOblique exch definefont pop
/Times-Roman findfont
dup length dict begin
  {1 index /FID ne {def} {pop pop} ifelse} forall
  /Encoding WinAnsiEncoding def
  currentdict
end
/Times-Roman exch definefont pop
/Times-Italic findfont
dup length dict begin
  {1 index /FID ne {def} {pop pop} ifelse} forall
  /Encoding WinAnsiEncoding def
  currentdict
end
/Times-Italic exch definefont pop
/Times-Bold findfont
dup length dict begin
  {1 index /FID ne {def} {pop pop} ifelse} forall
  /Encoding WinAnsiEncoding def
  currentdict
end
/Times-Bold exch definefont pop
/Times-BoldItalic findfont
dup length dict begin
  {1 index /FID ne {def} {pop pop} ifelse} forall
  /Encoding WinAnsiEncoding def
  currentdict
end
/Times-BoldItalic exch definefont pop
/Courier findfont
dup length dict begin
  {1 index /FID ne {def} {pop pop} ifelse} forall
  /Encoding WinAnsiEncoding def
  currentdict
end
/Courier exch definefont pop
%FOPEndFontReencode
%%EndProlog
%%Page: 1 1
%%PageBoundingBox: 0 0 1920 1029
%%BeginPageSetup
[1 0 0 -1 0 1029] CT
%%EndPageSetup
GS
[1.30612 0 0 1.3075 0 0] CT
1 GC
N
0 0 1470 787 re
f
GR
GS
[1.30612 0 0 1.3075 0 0] CT
1 GC
N
0 0 1470 787 re
f
GR
GS
[1.30612 0 0 1.3075 0 0] CT
1 GC
N
191 229 M
1330.5 229 L
1330.5 80 L
191 80 L
cp
f
GR
GS
[1.30612 0 0 1.3075 0 0] CT
0.149 GC
2 setlinecap
1 LJ
0.383 LW
N
191 229 M
1330.5 229 L
S
GR
GS
[1.30612 0 0 1.3075 0 0] CT
0.149 GC
2 setlinecap
1 LJ
0.383 LW
N
191 229 M
191 217.605 L
S
GR
GS
[1.30612 0 0 1.3075 0 0] CT
0.149 GC
2 setlinecap
1 LJ
0.383 LW
N
304.95 229 M
304.95 217.605 L
S
GR
GS
[1.30612 0 0 1.3075 0 0] CT
0.149 GC
2 setlinecap
1 LJ
0.383 LW
N
418.9 229 M
418.9 217.605 L
S
GR
GS
[1.30612 0 0 1.3075 0 0] CT
0.149 GC
2 setlinecap
1 LJ
0.383 LW
N
532.85 229 M
532.85 217.605 L
S
GR
GS
[1.30612 0 0 1.3075 0 0] CT
0.149 GC
2 setlinecap
1 LJ
0.383 LW
N
646.8 229 M
646.8 217.605 L
S
GR
GS
[1.30612 0 0 1.3075 0 0] CT
0.149 GC
2 setlinecap
1 LJ
0.383 LW
N
760.75 229 M
760.75 217.605 L
S
GR
GS
[1.30612 0 0 1.3075 0 0] CT
0.149 GC
2 setlinecap
1 LJ
0.383 LW
N
874.7 229 M
874.7 217.605 L
S
GR
GS
[1.30612 0 0 1.3075 0 0] CT
0.149 GC
2 setlinecap
1 LJ
0.383 LW
N
988.65 229 M
988.65 217.605 L
S
GR
GS
[1.30612 0 0 1.3075 0 0] CT
0.149 GC
2 setlinecap
1 LJ
0.383 LW
N
1102.6 229 M
1102.6 217.605 L
S
GR
GS
[1.30612 0 0 1.3075 0 0] CT
0.149 GC
2 setlinecap
1 LJ
0.383 LW
N
1216.55 229 M
1216.55 217.605 L
S
GR
GS
[1.30612 0 0 1.3075 0 0] CT
0.149 GC
2 setlinecap
1 LJ
0.383 LW
N
1330.5 229 M
1330.5 217.605 L
S
GR
GS
[1.30612 0 0 1.3075 249.46939 309.23934] CT
0.149 GC
/Helvetica 27.563 F
GS
[1 0 0 1 0 0] CT
-8 27 moveto 
1 -1 scale
(0) t 
GR
GR
GS
[1.30612 0 0 1.3075 398.30206 309.23934] CT
0.149 GC
/Helvetica 27.563 F
GS
[1 0 0 1 0 0] CT
-8 27 moveto 
1 -1 scale
(5) t 
GR
GR
GS
[1.30612 0 0 1.3075 547.13469 309.23934] CT
0.149 GC
/Helvetica 27.563 F
GS
[1 0 0 1 0 0] CT
-15.5 27 moveto 
1 -1 scale
(10) t 
GR
GR
GS
[1.30612 0 0 1.3075 695.96732 309.23934] CT
0.149 GC
/Helvetica 27.563 F
GS
[1 0 0 1 0 0] CT
-15.5 27 moveto 
1 -1 scale
(15) t 
GR
GR
GS
[1.30612 0 0 1.3075 844.79998 309.23934] CT
0.149 GC
/Helvetica 27.563 F
GS
[1 0 0 1 0 0] CT
-15.5 27 moveto 
1 -1 scale
(20) t 
GR
GR
GS
[1.30612 0 0 1.3075 993.63265 309.23934] CT
0.149 GC
/Helvetica 27.563 F
GS
[1 0 0 1 0 0] CT
-15.5 27 moveto 
1 -1 scale
(25) t 
GR
GR
GS
[1.30612 0 0 1.3075 1142.46532 309.23934] CT
0.149 GC
/Helvetica 27.563 F
GS
[1 0 0 1 0 0] CT
-15.5 27 moveto 
1 -1 scale
(30) t 
GR
GR
GS
[1.30612 0 0 1.3075 1291.29799 309.23934] CT
0.149 GC
/Helvetica 27.563 F
GS
[1 0 0 1 0 0] CT
-15.5 27 moveto 
1 -1 scale
(35) t 
GR
GR
GS
[1.30612 0 0 1.3075 1440.13058 309.23934] CT
0.149 GC
/Helvetica 27.563 F
GS
[1 0 0 1 0 0] CT
-15.5 27 moveto 
1 -1 scale
(40) t 
GR
GR
GS
[1.30612 0 0 1.3075 1588.96333 309.23934] CT
0.149 GC
/Helvetica 27.563 F
GS
[1 0 0 1 0 0] CT
-15.5 27 moveto 
1 -1 scale
(45) t 
GR
GR
GS
[1.30612 0 0 1.3075 1737.79592 309.23934] CT
0.149 GC
/Helvetica 27.563 F
GS
[1 0 0 1 0 0] CT
-15.5 27 moveto 
1 -1 scale
(50) t 
GR
GR
GS
[1.30612 0 0 1.3075 0 0] CT
0.149 GC
2 setlinecap
1 LJ
0.383 LW
N
191 229 M
191 80 L
S
GR
GS
[1.30612 0 0 1.3075 0 0] CT
0.149 GC
2 setlinecap
1 LJ
0.383 LW
N
191 229 M
202.395 229 L
S
GR
GS
[1.30612 0 0 1.3075 0 0] CT
0.149 GC
2 setlinecap
1 LJ
0.383 LW
N
191 154.5 M
202.395 154.5 L
S
GR
GS
[1.30612 0 0 1.3075 0 0] CT
0.149 GC
2 setlinecap
1 LJ
0.383 LW
N
191 80 M
202.395 80 L
S
GR
GS
[1.30612 0 0 1.3075 239.65715 299.41677] CT
0.149 GC
/Helvetica 27.563 F
GS
[1 0 0 1 0 0] CT
-16 10.5 moveto 
1 -1 scale
(0) t 
GR
GR
GS
[1.30612 0 0 1.3075 239.65715 202.00826] CT
0.149 GC
/Helvetica 27.563 F
GS
[1 0 0 1 0 0] CT
-31 10.5 moveto 
1 -1 scale
(50) t 
GR
GR
GS
[1.30612 0 0 1.3075 239.65715 104.59975] CT
0.149 GC
/Helvetica 27.563 F
GS
[1 0 0 1 0 0] CT
-46 10.5 moveto 
1 -1 scale
(100) t 
GR
GR
GS
[1.30612 0 0 1.3075 993.63361 99.64454] CT
/Helvetica-Bold 30.319 F
GS
[1 0 0 1 0 0] CT
-341.5 -7 moveto 
1 -1 scale
(H and F across threshold gain parameter range) t 
GR
GR
GS
[1.30612 0 0 1.3075 0 0] CT
0 0 1 RC
1 LJ
3.828 LW
N
213.79 80 M
236.58 86.773 L
259.37 86.773 L
282.16 86.773 L
304.95 86.773 L
327.74 86.773 L
350.53 86.773 L
373.32 86.773 L
396.11 86.773 L
418.9 86.773 L
441.69 86.773 L
464.48 86.773 L
487.27 86.773 L
510.06 86.773 L
532.85 86.773 L
555.64 86.773 L
578.43 86.773 L
601.22 86.773 L
624.01 86.773 L
646.8 86.773 L
669.59 86.773 L
692.38 86.773 L
715.17 93.545 L
737.96 93.545 L
760.75 93.545 L
783.54 93.545 L
806.33 93.545 L
829.12 93.545 L
851.91 93.545 L
874.7 93.545 L
897.49 93.545 L
920.28 93.545 L
943.07 93.545 L
965.86 93.545 L
988.65 93.545 L
1011.44 93.545 L
1034.23 93.545 L
1057.02 93.545 L
1079.81 93.545 L
1102.6 93.545 L
1125.39 93.545 L
1148.18 93.545 L
1170.97 93.545 L
1193.76 93.545 L
1216.55 93.545 L
1239.34 93.545 L
1262.13 93.545 L
1284.92 93.545 L
1307.71 93.545 L
1330.5 93.545 L
S
GR
GS
[1.30612 0 0 1.3075 0 0] CT
1 0 0 RC
1 LJ
3.828 LW
N
213.79 158.421 M
236.58 158.421 L
259.37 166.263 L
282.16 174.105 L
304.95 181.947 L
327.74 181.947 L
350.53 181.947 L
373.32 189.789 L
396.11 189.789 L
418.9 197.632 L
441.69 205.474 L
464.48 205.474 L
487.27 205.474 L
510.06 221.158 L
532.85 221.158 L
555.64 221.158 L
578.43 221.158 L
601.22 221.158 L
624.01 221.158 L
646.8 221.158 L
669.59 221.158 L
692.38 221.158 L
715.17 221.158 L
737.96 221.158 L
760.75 221.158 L
783.54 221.158 L
806.33 221.158 L
829.12 221.158 L
851.91 221.158 L
874.7 221.158 L
897.49 221.158 L
920.28 221.158 L
943.07 221.158 L
965.86 221.158 L
988.65 221.158 L
1011.44 221.158 L
1034.23 221.158 L
1057.02 221.158 L
1079.81 221.158 L
1102.6 221.158 L
1125.39 221.158 L
1148.18 221.158 L
1170.97 221.158 L
1193.76 221.158 L
1216.55 221.158 L
1239.34 221.158 L
1262.13 221.158 L
1284.92 221.158 L
1307.71 221.158 L
1330.5 221.158 L
S
GR
GS
[1.30612 0 0 1.3075 0 0] CT
1 GC
N
1324.5 165.5 M
1324.5 103 L
1192 103 L
1192 165.5 L
cp
f
GR
GS
[1.30612 0 0 1.3075 1593.92857 155.9785] CT
/Helvetica 24.806 F
GS
[1 0 0 1 0 0] CT
0 9 moveto 
1 -1 scale
(ERBlet H) t 
GR
GR
GS
[1.30612 0 0 1.3075 0 0] CT
0 0 1 RC
1 LJ
3.828 LW
N
1195.065 119.296 M
1218.053 119.296 L
S
GR
GS
[1.30612 0 0 1.3075 1593.92857 195.08439] CT
/Helvetica 24.806 F
GS
[1 0 0 1 0 0] CT
0 9 moveto 
1 -1 scale
(ERBlet F) t 
GR
GR
GS
[1.30612 0 0 1.3075 0 0] CT
1 0 0 RC
1 LJ
3.828 LW
N
1195.065 149.204 M
1218.053 149.204 L
S
GR
GS
[1.30612 0 0 1.3075 0 0] CT
0.149 GC
10.0 ML
0.383 LW
N
1192 165.5 M
1192 103 L
1324.5 103 L
1324.5 165.5 L
cp
S
GR
GS
[1.30612 0 0 1.3075 0 0] CT
1 GC
N
191 465 M
1330.5 465 L
1330.5 316 L
191 316 L
cp
f
GR
GS
[1.30612 0 0 1.3075 0 0] CT
0.149 GC
2 setlinecap
1 LJ
0.383 LW
N
191 465 M
1330.5 465 L
S
GR
GS
[1.30612 0 0 1.3075 0 0] CT
0.149 GC
2 setlinecap
1 LJ
0.383 LW
N
191 465 M
191 453.605 L
S
GR
GS
[1.30612 0 0 1.3075 0 0] CT
0.149 GC
2 setlinecap
1 LJ
0.383 LW
N
304.95 465 M
304.95 453.605 L
S
GR
GS
[1.30612 0 0 1.3075 0 0] CT
0.149 GC
2 setlinecap
1 LJ
0.383 LW
N
418.9 465 M
418.9 453.605 L
S
GR
GS
[1.30612 0 0 1.3075 0 0] CT
0.149 GC
2 setlinecap
1 LJ
0.383 LW
N
532.85 465 M
532.85 453.605 L
S
GR
GS
[1.30612 0 0 1.3075 0 0] CT
0.149 GC
2 setlinecap
1 LJ
0.383 LW
N
646.8 465 M
646.8 453.605 L
S
GR
GS
[1.30612 0 0 1.3075 0 0] CT
0.149 GC
2 setlinecap
1 LJ
0.383 LW
N
760.75 465 M
760.75 453.605 L
S
GR
GS
[1.30612 0 0 1.3075 0 0] CT
0.149 GC
2 setlinecap
1 LJ
0.383 LW
N
874.7 465 M
874.7 453.605 L
S
GR
GS
[1.30612 0 0 1.3075 0 0] CT
0.149 GC
2 setlinecap
1 LJ
0.383 LW
N
988.65 465 M
988.65 453.605 L
S
GR
GS
[1.30612 0 0 1.3075 0 0] CT
0.149 GC
2 setlinecap
1 LJ
0.383 LW
N
1102.6 465 M
1102.6 453.605 L
S
GR
GS
[1.30612 0 0 1.3075 0 0] CT
0.149 GC
2 setlinecap
1 LJ
0.383 LW
N
1216.55 465 M
1216.55 453.605 L
S
GR
GS
[1.30612 0 0 1.3075 0 0] CT
0.149 GC
2 setlinecap
1 LJ
0.383 LW
N
1330.5 465 M
1330.5 453.605 L
S
GR
GS
[1.30612 0 0 1.3075 249.46939 617.80861] CT
0.149 GC
/Helvetica 27.563 F
GS
[1 0 0 1 0 0] CT
-8 27 moveto 
1 -1 scale
(0) t 
GR
GR
GS
[1.30612 0 0 1.3075 398.30206 617.80861] CT
0.149 GC
/Helvetica 27.563 F
GS
[1 0 0 1 0 0] CT
-8 27 moveto 
1 -1 scale
(5) t 
GR
GR
GS
[1.30612 0 0 1.3075 547.13469 617.80861] CT
0.149 GC
/Helvetica 27.563 F
GS
[1 0 0 1 0 0] CT
-15.5 27 moveto 
1 -1 scale
(10) t 
GR
GR
GS
[1.30612 0 0 1.3075 695.96732 617.80861] CT
0.149 GC
/Helvetica 27.563 F
GS
[1 0 0 1 0 0] CT
-15.5 27 moveto 
1 -1 scale
(15) t 
GR
GR
GS
[1.30612 0 0 1.3075 844.79998 617.80861] CT
0.149 GC
/Helvetica 27.563 F
GS
[1 0 0 1 0 0] CT
-15.5 27 moveto 
1 -1 scale
(20) t 
GR
GR
GS
[1.30612 0 0 1.3075 993.63265 617.80861] CT
0.149 GC
/Helvetica 27.563 F
GS
[1 0 0 1 0 0] CT
-15.5 27 moveto 
1 -1 scale
(25) t 
GR
GR
GS
[1.30612 0 0 1.3075 1142.46532 617.80861] CT
0.149 GC
/Helvetica 27.563 F
GS
[1 0 0 1 0 0] CT
-15.5 27 moveto 
1 -1 scale
(30) t 
GR
GR
GS
[1.30612 0 0 1.3075 1291.29799 617.80861] CT
0.149 GC
/Helvetica 27.563 F
GS
[1 0 0 1 0 0] CT
-15.5 27 moveto 
1 -1 scale
(35) t 
GR
GR
GS
[1.30612 0 0 1.3075 1440.13058 617.80861] CT
0.149 GC
/Helvetica 27.563 F
GS
[1 0 0 1 0 0] CT
-15.5 27 moveto 
1 -1 scale
(40) t 
GR
GR
GS
[1.30612 0 0 1.3075 1588.96333 617.80861] CT
0.149 GC
/Helvetica 27.563 F
GS
[1 0 0 1 0 0] CT
-15.5 27 moveto 
1 -1 scale
(45) t 
GR
GR
GS
[1.30612 0 0 1.3075 1737.79592 617.80861] CT
0.149 GC
/Helvetica 27.563 F
GS
[1 0 0 1 0 0] CT
-15.5 27 moveto 
1 -1 scale
(50) t 
GR
GR
GS
[1.30612 0 0 1.3075 0 0] CT
0.149 GC
2 setlinecap
1 LJ
0.383 LW
N
191 465 M
191 316 L
S
GR
GS
[1.30612 0 0 1.3075 0 0] CT
0.149 GC
2 setlinecap
1 LJ
0.383 LW
N
191 465 M
202.395 465 L
S
GR
GS
[1.30612 0 0 1.3075 0 0] CT
0.149 GC
2 setlinecap
1 LJ
0.383 LW
N
191 390.5 M
202.395 390.5 L
S
GR
GS
[1.30612 0 0 1.3075 0 0] CT
0.149 GC
2 setlinecap
1 LJ
0.383 LW
N
191 316 M
202.395 316 L
S
GR
GS
[1.30612 0 0 1.3075 239.65715 607.98602] CT
0.149 GC
/Helvetica 27.563 F
GS
[1 0 0 1 0 0] CT
-16 10.5 moveto 
1 -1 scale
(0) t 
GR
GR
GS
[1.30612 0 0 1.3075 239.65715 510.57751] CT
0.149 GC
/Helvetica 27.563 F
GS
[1 0 0 1 0 0] CT
-31 10.5 moveto 
1 -1 scale
(50) t 
GR
GR
GS
[1.30612 0 0 1.3075 239.65715 413.169] CT
0.149 GC
/Helvetica 27.563 F
GS
[1 0 0 1 0 0] CT
-46 10.5 moveto 
1 -1 scale
(100) t 
GR
GR
GS
[0 -1.3075 1.30612 0 112.7394 508.57928] CT
0.149 GC
/Helvetica 30.319 F
GS
[1 0 0 1 0 0] CT
-70.5 -7 moveto 
1 -1 scale
(Ratios \(%\)) t 
GR
GR
GS
[1.30612 0 0 1.3075 993.63361 408.21377] CT
/Helvetica-Bold 30.319 F
GS
[1 0 0 1 0 0] CT
-278.5 -7 moveto 
1 -1 scale
(H and F across first distinct parameter) t 
GR
GR
GS
[1.30612 0 0 1.3075 0 0] CT
0 0 1 RC
1 LJ
3.828 LW
N
213.79 316 M
236.58 322.773 L
259.37 322.773 L
282.16 322.773 L
304.95 322.773 L
327.74 322.773 L
350.53 322.773 L
373.32 322.773 L
396.11 322.773 L
418.9 322.773 L
441.69 322.773 L
464.48 322.773 L
487.27 322.773 L
510.06 322.773 L
532.85 322.773 L
555.64 322.773 L
578.43 322.773 L
601.22 322.773 L
624.01 322.773 L
646.8 322.773 L
669.59 322.773 L
692.38 322.773 L
715.17 329.545 L
737.96 329.545 L
760.75 329.545 L
783.54 329.545 L
806.33 329.545 L
829.12 329.545 L
851.91 329.545 L
874.7 329.545 L
897.49 329.545 L
920.28 329.545 L
943.07 329.545 L
965.86 329.545 L
988.65 329.545 L
1011.44 329.545 L
1034.23 329.545 L
1057.02 329.545 L
1079.81 329.545 L
1102.6 329.545 L
1125.39 329.545 L
1148.18 329.545 L
1170.97 329.545 L
1193.76 329.545 L
1216.55 329.545 L
1239.34 329.545 L
1262.13 329.545 L
1284.92 329.545 L
1307.71 329.545 L
1330.5 329.545 L
S
GR
GS
[1.30612 0 0 1.3075 0 0] CT
1 0 0 RC
1 LJ
3.828 LW
N
213.79 394.421 M
236.58 394.421 L
259.37 402.263 L
282.16 410.105 L
304.95 417.947 L
327.74 417.947 L
350.53 417.947 L
373.32 425.789 L
396.11 425.789 L
418.9 433.632 L
441.69 441.474 L
464.48 441.474 L
487.27 441.474 L
510.06 457.158 L
532.85 457.158 L
555.64 457.158 L
578.43 457.158 L
601.22 457.158 L
624.01 457.158 L
646.8 457.158 L
669.59 457.158 L
692.38 457.158 L
715.17 457.158 L
737.96 457.158 L
760.75 457.158 L
783.54 457.158 L
806.33 457.158 L
829.12 457.158 L
851.91 457.158 L
874.7 457.158 L
897.49 457.158 L
920.28 457.158 L
943.07 457.158 L
965.86 457.158 L
988.65 457.158 L
1011.44 457.158 L
1034.23 457.158 L
1057.02 457.158 L
1079.81 457.158 L
1102.6 457.158 L
1125.39 457.158 L
1148.18 457.158 L
1170.97 457.158 L
1193.76 457.158 L
1216.55 457.158 L
1239.34 457.158 L
1262.13 457.158 L
1284.92 457.158 L
1307.71 457.158 L
1330.5 457.158 L
S
GR
GS
[1.30612 0 0 1.3075 0 0] CT
1 GC
N
1326.5 403 M
1326.5 341 L
1194 341 L
1194 403 L
cp
f
GR
GS
[1.30612 0 0 1.3075 1596.54082 466.99227] CT
/Helvetica 24.806 F
GS
[1 0 0 1 0 0] CT
0 9 moveto 
1 -1 scale
(ERBlet H) t 
GR
GR
GS
[1.30612 0 0 1.3075 0 0] CT
0 0 1 RC
1 LJ
3.828 LW
N
1197.065 357.165 M
1220.053 357.165 L
S
GR
GS
[1.30612 0 0 1.3075 1596.54082 505.78536] CT
/Helvetica 24.806 F
GS
[1 0 0 1 0 0] CT
0 9 moveto 
1 -1 scale
(ERBlet F) t 
GR
GR
GS
[1.30612 0 0 1.3075 0 0] CT
1 0 0 RC
1 LJ
3.828 LW
N
1197.065 386.835 M
1220.053 386.835 L
S
GR
GS
[1.30612 0 0 1.3075 0 0] CT
0.149 GC
10.0 ML
0.383 LW
N
1194 403 M
1194 341 L
1326.5 341 L
1326.5 403 L
cp
S
GR
GS
[1.30612 0 0 1.3075 0 0] CT
1 GC
N
191 701.5 M
1330.5 701.5 L
1330.5 552.5 L
191 552.5 L
cp
f
GR
GS
[1.30612 0 0 1.3075 0 0] CT
0.149 GC
2 setlinecap
1 LJ
0.383 LW
N
191 701.5 M
1330.5 701.5 L
S
GR
GS
[1.30612 0 0 1.3075 0 0] CT
0.149 GC
2 setlinecap
1 LJ
0.383 LW
N
191 701.5 M
191 690.105 L
S
GR
GS
[1.30612 0 0 1.3075 0 0] CT
0.149 GC
2 setlinecap
1 LJ
0.383 LW
N
418.9 701.5 M
418.9 690.105 L
S
GR
GS
[1.30612 0 0 1.3075 0 0] CT
0.149 GC
2 setlinecap
1 LJ
0.383 LW
N
646.8 701.5 M
646.8 690.105 L
S
GR
GS
[1.30612 0 0 1.3075 0 0] CT
0.149 GC
2 setlinecap
1 LJ
0.383 LW
N
874.7 701.5 M
874.7 690.105 L
S
GR
GS
[1.30612 0 0 1.3075 0 0] CT
0.149 GC
2 setlinecap
1 LJ
0.383 LW
N
1102.6 701.5 M
1102.6 690.105 L
S
GR
GS
[1.30612 0 0 1.3075 0 0] CT
0.149 GC
2 setlinecap
1 LJ
0.383 LW
N
1330.5 701.5 M
1330.5 690.105 L
S
GR
GS
[1.30612 0 0 1.3075 249.46939 927.03161] CT
0.149 GC
/Helvetica 27.563 F
GS
[1 0 0 1 0 0] CT
-8 27 moveto 
1 -1 scale
(0) t 
GR
GR
GS
[1.30612 0 0 1.3075 547.13469 927.03161] CT
0.149 GC
/Helvetica 27.563 F
GS
[1 0 0 1 0 0] CT
-8 27 moveto 
1 -1 scale
(5) t 
GR
GR
GS
[1.30612 0 0 1.3075 844.79998 927.03161] CT
0.149 GC
/Helvetica 27.563 F
GS
[1 0 0 1 0 0] CT
-15.5 27 moveto 
1 -1 scale
(10) t 
GR
GR
GS
[1.30612 0 0 1.3075 1142.46532 927.03161] CT
0.149 GC
/Helvetica 27.563 F
GS
[1 0 0 1 0 0] CT
-15.5 27 moveto 
1 -1 scale
(15) t 
GR
GR
GS
[1.30612 0 0 1.3075 1440.13058 927.03161] CT
0.149 GC
/Helvetica 27.563 F
GS
[1 0 0 1 0 0] CT
-15.5 27 moveto 
1 -1 scale
(20) t 
GR
GR
GS
[1.30612 0 0 1.3075 1737.79592 927.03161] CT
0.149 GC
/Helvetica 27.563 F
GS
[1 0 0 1 0 0] CT
-15.5 27 moveto 
1 -1 scale
(25) t 
GR
GR
GS
[1.30612 0 0 1.3075 993.63337 970.83275] CT
0.149 GC
/Helvetica 30.319 F
GS
[1 0 0 1 0 0] CT
-126 29 moveto 
1 -1 scale
(Parameter Ranges) t 
GR
GR
GS
[1.30612 0 0 1.3075 0 0] CT
0.149 GC
2 setlinecap
1 LJ
0.383 LW
N
191 701.5 M
191 552.5 L
S
GR
GS
[1.30612 0 0 1.3075 0 0] CT
0.149 GC
2 setlinecap
1 LJ
0.383 LW
N
191 701.5 M
202.395 701.5 L
S
GR
GS
[1.30612 0 0 1.3075 0 0] CT
0.149 GC
2 setlinecap
1 LJ
0.383 LW
N
191 627 M
202.395 627 L
S
GR
GS
[1.30612 0 0 1.3075 0 0] CT
0.149 GC
2 setlinecap
1 LJ
0.383 LW
N
191 552.5 M
202.395 552.5 L
S
GR
GS
[1.30612 0 0 1.3075 239.65715 917.20902] CT
0.149 GC
/Helvetica 27.563 F
GS
[1 0 0 1 0 0] CT
-16 10.5 moveto 
1 -1 scale
(0) t 
GR
GR
GS
[1.30612 0 0 1.3075 239.65715 819.80051] CT
0.149 GC
/Helvetica 27.563 F
GS
[1 0 0 1 0 0] CT
-31 10.5 moveto 
1 -1 scale
(50) t 
GR
GR
GS
[1.30612 0 0 1.3075 239.65715 722.39199] CT
0.149 GC
/Helvetica 27.563 F
GS
[1 0 0 1 0 0] CT
-46 10.5 moveto 
1 -1 scale
(100) t 
GR
GR
GS
[1.30612 0 0 1.3075 993.63361 717.43677] CT
/Helvetica-Bold 30.319 F
GS
[1 0 0 1 0 0] CT
-303 -7 moveto 
1 -1 scale
(H and F across second distinct parameter) t 
GR
GR
GS
[1.30612 0 0 1.3075 0 0] CT
0 0 1 RC
1 LJ
3.828 LW
N
236.58 579.591 M
282.16 579.591 L
327.74 572.818 L
373.32 572.818 L
418.9 572.818 L
464.48 572.818 L
510.06 566.045 L
555.64 566.045 L
601.22 559.273 L
646.8 559.273 L
692.38 559.273 L
737.96 559.273 L
783.54 559.273 L
829.12 559.273 L
874.7 552.5 L
920.28 552.5 L
965.86 552.5 L
1011.44 552.5 L
1057.02 552.5 L
1102.6 552.5 L
1148.18 552.5 L
S
GR
GS
[1.30612 0 0 1.3075 0 0] CT
1 0 0 RC
1 LJ
3.828 LW
N
236.58 701.5 M
282.16 693.658 L
327.74 693.658 L
373.32 693.658 L
418.9 693.658 L
464.48 693.658 L
510.06 693.658 L
555.64 693.658 L
601.22 693.658 L
646.8 693.658 L
692.38 677.974 L
737.96 670.132 L
783.54 670.132 L
829.12 662.289 L
874.7 638.763 L
920.28 630.921 L
965.86 615.237 L
1011.44 591.711 L
1057.02 576.026 L
1102.6 560.342 L
1148.18 560.342 L
S
GR
GS
[1.30612 0 0 1.3075 0 0] CT
1 GC
N
1322.5 622.5 M
1322.5 560 L
1190 560 L
1190 622.5 L
cp
f
GR
GS
[1.30612 0 0 1.3075 1591.31633 753.50458] CT
/Helvetica 24.806 F
GS
[1 0 0 1 0 0] CT
0 9 moveto 
1 -1 scale
(ERBlet H) t 
GR
GR
GS
[1.30612 0 0 1.3075 0 0] CT
0 0 1 RC
1 LJ
3.828 LW
N
1193.065 576.296 M
1216.053 576.296 L
S
GR
GS
[1.30612 0 0 1.3075 1591.31633 792.61042] CT
/Helvetica 24.806 F
GS
[1 0 0 1 0 0] CT
0 9 moveto 
1 -1 scale
(ERBlet F) t 
GR
GR
GS
[1.30612 0 0 1.3075 0 0] CT
1 0 0 RC
1 LJ
3.828 LW
N
1193.065 606.204 M
1216.053 606.204 L
S
GR
GS
[1.30612 0 0 1.3075 0 0] CT
0.149 GC
10.0 ML
0.383 LW
N
1190 622.5 M
1190 560 L
1322.5 560 L
1322.5 622.5 L
cp
S
GR
%%Trailer
%%Pages: 1
%%EOF
